{
    "_id": "B18UXeicuV8RF8kP",
    "data": {
        "attributes": {
            "ac": {
                "value": 27
            },
            "hardness": 0,
            "hasHealth": true,
            "hp": {
                "details": "",
                "max": 70,
                "temp": 0,
                "tempmax": 0,
                "value": 70
            },
            "stealth": {
                "details": "(trained)",
                "value": 28
            }
        },
        "creatureType": "",
        "details": {
            "description": "The xulgath corpse splits open to release a cloud of tiny ectoplasmic crystals which, when they are   inhaled, disorient and devitalize living creatures.",
            "disable": "DC 26 Arcana or Occult (expert) to render the crystal cloud inert",
            "isComplex": false,
            "level": 8,
            "reset": "The crystals regrow into a number sufficient to form another dangerous cloud after 1 week.",
            "routine": ""
        },
        "flavourText": "",
        "nethysUrl": "",
        "recallKnowledgeText": "",
        "saves": {
            "fortitude": {
                "rank": 0,
                "saveDetail": "",
                "value": 17
            },
            "reflex": {
                "rank": 0,
                "saveDetail": "",
                "value": 13
            },
            "will": {
                "rank": 0,
                "saveDetail": "",
                "value": null
            }
        },
        "schema": {
            "version": {
                "value": ""
            }
        },
        "sidebarText": "",
        "source": {
            "value": ""
        },
        "statusEffects": [],
        "traits": {
            "ci": [],
            "di": {
                "custom": "",
                "selected": {},
                "value": [
                    "critical-hits",
                    "object-immunities",
                    "precision"
                ]
            },
            "dr": [],
            "dv": [],
            "rarity": {
                "value": "uncommon"
            },
            "size": {
                "value": "med"
            },
            "traits": {
                "custom": "",
                "value": [
                    "environmental"
                ]
            }
        }
    },
    "effects": [],
    "flags": {},
    "img": "systems/pf2e/icons/default-icons/hazard.svg",
    "items": [
        {
            "_id": "zDJDO6RiYek1vtDZ",
            "data": {
                "actionCategory": {
                    "value": ""
                },
                "actionType": {
                    "value": "reaction"
                },
                "actions": {
                    "value": ""
                },
                "description": {
                    "chat": "",
                    "unidentified": "",
                    "value": "<p><strong>Trigger</strong> A creature touches or disturbs the corpse containing the growth of crystals;</p>\n<p><strong>Effect</strong> All creatures within 10 feet of the corpse are exposed to the ghost crystal cloud.</p>"
                },
                "requirements": {
                    "value": ""
                },
                "rules": [],
                "slug": null,
                "source": {
                    "value": ""
                },
                "traits": {
                    "custom": "",
                    "rarity": {
                        "value": "common"
                    },
                    "value": []
                },
                "trigger": {
                    "value": ""
                },
                "usage": {
                    "value": "held-in-one-hand"
                },
                "weapon": {
                    "value": ""
                }
            },
            "effects": [],
            "flags": {},
            "img": "systems/pf2e/icons/actions/Reaction.png",
            "name": "Ectoplasmic Explosion",
            "sort": 100000,
            "type": "action"
        },
        {
            "_id": "NrFxf3psvDqHyWQv",
            "data": {
                "actionCategory": {
                    "value": ""
                },
                "actionType": {
                    "value": "passive"
                },
                "actions": {
                    "value": ""
                },
                "description": {
                    "chat": "",
                    "unidentified": "",
                    "value": "<p>Creatures with the ethereal trait are immune;</p>\n<p><strong>Saving Throw</strong> DC 26 Fortitude;</p>\n<p><strong>Maximum Duration</strong> 6 rounds;</p>\n<p><strong>Stage 1</strong> [[/r 1d10 #poison]] poison damage and @Compendium[pf2e.conditionitems.Stupefied]{Stupefied} 1 (1 round);</p>\n<p><strong>Stage 2</strong> [[/r 2d10 #poison]] poison damage and stupefied 2 (1 round);</p>\n<p><strong>Stage 3</strong> [[/r 3d10 #poison]] poison damage and stupefied 3 (1 round)</p>"
                },
                "requirements": {
                    "value": ""
                },
                "rules": [],
                "slug": null,
                "source": {
                    "value": ""
                },
                "traits": {
                    "custom": "Inhaled",
                    "rarity": {
                        "value": "common"
                    },
                    "value": [
                        "poison"
                    ]
                },
                "trigger": {
                    "value": ""
                },
                "usage": {
                    "value": "held-in-one-hand"
                },
                "weapon": {
                    "value": ""
                }
            },
            "effects": [],
            "flags": {},
            "img": "systems/pf2e/icons/default-icons/action.svg",
            "name": "Ghost Crystal Cloud",
            "sort": 200000,
            "type": "action"
        }
    ],
    "name": "Ghost Crystal Cloud",
    "permission": {
        "default": 0
    },
    "token": {
        "actorId": "B18UXeicuV8RF8kP",
        "actorLink": false,
        "bar1": {
            "attribute": "attributes.hp"
        },
        "bar2": {},
        "brightLight": 0,
        "brightSight": 0,
        "dimLight": 0,
        "dimSight": 0,
        "displayBars": 20,
        "displayName": 20,
        "disposition": 0,
        "flags": {},
        "height": 1,
        "img": "systems/pf2e/icons/default-icons/hazard.svg",
        "lightAlpha": 1,
        "lightAngle": 360,
        "lightAnimation": {
            "intensity": 5,
            "speed": 5
        },
        "lockRotation": false,
        "name": "Ghost Crystal Cloud",
        "randomImg": false,
        "rotation": 0,
        "scale": 1,
        "sightAngle": 360,
        "tint": null,
        "vision": false,
        "width": 1
    },
    "type": "hazard"
}
