{
    "_id": "yblD8fOR1J8rDwEQ",
    "data": {
        "active": true,
        "alsoApplies": {
            "linked": [
                {
                    "condition": "Flat-Footed"
                }
            ],
            "unlinked": []
        },
        "base": "Confused",
        "description": {
            "chat": "",
            "unidentified": "",
            "value": "<p>You don't have your wits about you, and you attack wildly. You are @Compendium[pf2e.conditionitems.Flat-Footed]{Flat-Footed}, you don't treat anyone as your ally (though they might still treat you as theirs), and you can't Delay, Ready, or use reactions.<br /><br />You use all your actions to @Compendium[pf2e.actionspf2e.Strike]{Strike} or cast offensive cantrips, though the GM can have you use other actions to facilitate attack, such as draw a weapon, move so that a target is in reach, and so forth. Your targets are determined randomly by the GM. If you have no other viable targets, you target yourself, automatically hitting but not scoring a critical hit. If it's impossible for you to attack or cast spells, you babble incoherently, wasting your actions.<br /><br />Each time you take damage from an attack or spell, you can attempt a <strong>DC 11</strong> flat check to recover from your confusion and end the condition.</p>"
        },
        "duration": {
            "perpetual": true,
            "text": "",
            "value": 0
        },
        "group": "",
        "hud": {
            "img": {
                "useStatusName": true,
                "value": "systems/pf2e/icons/conditions-2/confused.png"
            },
            "selectable": true,
            "statusName": "confused"
        },
        "modifiers": [],
        "overrides": [],
        "references": {
            "children": [],
            "immunityFrom": [],
            "overriddenBy": [],
            "overrides": []
        },
        "removable": true,
        "rules": [],
        "source": {
            "value": ""
        },
        "sources": {
            "hud": false
        },
        "traits": {
            "custom": "",
            "rarity": {
                "value": "common"
            },
            "value": []
        },
        "value": {
            "immutable": false,
            "isValued": false,
            "modifiers": [],
            "value": 1
        }
    },
    "effects": [],
    "flags": {
        "pf2e": {
            "condition": true
        }
    },
    "img": "systems/pf2e/icons/conditions/confused.png",
    "name": "Confused",
    "permission": {
        "default": 0
    },
    "type": "condition"
}
