{
    "_id": "pBX18FI1grWwkWjk",
    "data": {
        "boosts": {
            "0": {
                "value": [
                    "cha",
                    "int"
                ]
            },
            "1": {
                "value": [
                    "cha",
                    "con",
                    "dex",
                    "int",
                    "str",
                    "wis"
                ]
            }
        },
        "description": {
            "chat": "",
            "unidentified": "",
            "value": "<p><strong>Prerequisite</strong>: Region - Shining Kingdoms</p>\n<hr />\n<p>You were trained to be an ambassador of the elven land of Kyonin, and you have now been sent out into the wider world to build alliances between Kyonin and the neighboring kingdoms.</p>\n<p>Choose two ability boosts. One must be to <strong>Charisma</strong> or <strong>Intelligence</strong>, and one is a free ability boost.</p>\n<p>You're trained in the Society skill and the Politics Lore skill. You gain the @Compendium[pf2e.feats-srd.Multilingual]{Multilingual} skill feat.</p>"
        },
        "items": {
            "3sxsf": {
                "id": "P9HCz0uR6xPHuw72",
                "img": "systems/pf2e/icons/features/feats/feats.jpg",
                "level": "1",
                "name": "Multilingual",
                "pack": "pf2e.feats-srd"
            }
        },
        "rules": [],
        "source": {
            "value": ""
        },
        "trainedLore": "Politics Lore",
        "trainedSkills": {
            "value": [
                "soc"
            ]
        },
        "traits": {
            "custom": "",
            "rarity": {
                "value": "common"
            },
            "value": []
        }
    },
    "effects": [],
    "flags": {},
    "img": "icons/svg/mystery-man.svg",
    "name": "Kyonin Emissary",
    "permission": {
        "default": 0
    },
    "type": "background"
}
