{
    "_id": "rzyRtasSTfHS3e0y",
    "data": {
        "boosts": {
            "0": {
                "value": [
                    "con",
                    "wis"
                ]
            },
            "1": {
                "value": [
                    "cha",
                    "con",
                    "dex",
                    "int",
                    "str",
                    "wis"
                ]
            }
        },
        "description": {
            "chat": "",
            "unidentified": "",
            "value": "<p>You died and miraculously returned with knowledge of the realms beyond death and a stronger link to life. Some dead and undead souls might feel a strange, instinctual kinship with you.</p>\n<p>Choose two ability boosts. One must be to <strong>Constitution</strong> or <strong>Wisdom</strong>, and one is a free ability boost.</p>\n<p>You gain the @Compendium[pf2e.feats-srd.Diehard]{Diehard} feat and the @Compendium[pf2e.feats-srd.Additional Lore]{Additional Lore} feat for Boneyard Lore.</p>"
        },
        "items": {
            "bpwjq": {
                "id": "I0BhPWqYf1bbzEYg",
                "img": "systems/pf2e/icons/features/feats/feats.jpg",
                "level": "1",
                "name": "Diehard",
                "pack": "pf2e.feats-srd"
            },
            "k29rl": {
                "id": "BocFD2KV0qgUC76x",
                "img": "systems/pf2e/icons/features/feats/feats.jpg",
                "level": 1,
                "name": "Additional Lore",
                "pack": "pf2e.feats-srd"
            }
        },
        "rules": [],
        "source": {
            "value": ""
        },
        "trainedLore": "**Boneyard Lore (with Additional Lore perks)",
        "trainedSkills": {
            "value": []
        },
        "traits": {
            "custom": "",
            "rarity": {
                "value": "rare"
            },
            "value": []
        },
        "usage": {
            "value": "held-in-one-hand"
        }
    },
    "effects": [],
    "flags": {},
    "img": "icons/svg/mystery-man.svg",
    "name": "Returned",
    "permission": {
        "default": 0
    },
    "type": "background"
}
