{
    "_id": "9ZGkQo739t9utj37",
    "data": {
        "armor": {
            "value": 2
        },
        "armorType": {
            "value": "shield"
        },
        "baseItem": null,
        "brokenThreshold": {
            "value": 12
        },
        "bulkCapacity": {
            "value": ""
        },
        "check": {
            "value": ""
        },
        "collapsed": {
            "value": false
        },
        "containerId": {
            "value": ""
        },
        "description": {
            "chat": "",
            "unidentified": "",
            "value": "<p>This wooden shield (Hardness 10, HP 40, BT 20) is carved with images of overlapping fletched arrows.</p>\n<hr />\n<p><strong>Activate</strong> <span style=\"font-family: 'Pathfinder2eActions'; font-size: 1.8em; display: inline;\">R</span> Interact</p>\n<p><strong>Trigger</strong> A ranged weapon Strike targets a creature within 15 feet of you when you have this shield raised, and the attacker has not yet rolled their attack</p>\n<p><strong>Effect</strong> The triggering Strike targets you instead of its normal target. If it hits, you gain the effects of the @Compendium[pf2e.feats-srd.Shield Block]{Shield Block} reaction.</p>"
        },
        "dex": {
            "value": ""
        },
        "equipped": {
            "value": true
        },
        "equippedBulk": {
            "value": ""
        },
        "group": {
            "value": ""
        },
        "hardness": {
            "value": 6
        },
        "hp": {
            "value": 24
        },
        "identification": {
            "status": "identified"
        },
        "identified": {
            "value": true
        },
        "invested": {
            "value": false
        },
        "level": {
            "value": 11
        },
        "maxHp": {
            "value": 24
        },
        "negateBulk": {
            "value": "0"
        },
        "potency": {},
        "potencyRune": {
            "value": ""
        },
        "preciousMaterial": {
            "value": ""
        },
        "preciousMaterialGrade": {
            "value": ""
        },
        "price": {
            "value": "1,350 gp"
        },
        "propertyRune1": {
            "value": ""
        },
        "propertyRune2": {
            "value": ""
        },
        "propertyRune3": {
            "value": ""
        },
        "propertyRune4": {
            "value": ""
        },
        "quantity": {
            "value": 1
        },
        "resiliencyRune": {
            "value": ""
        },
        "resilient": {},
        "rules": [],
        "size": {
            "value": "med"
        },
        "source": {
            "value": ""
        },
        "speed": {
            "value": ""
        },
        "stackGroup": {
            "value": ""
        },
        "strength": {
            "value": ""
        },
        "traits": {
            "custom": "",
            "rarity": {
                "value": "common"
            },
            "value": [
                "abjuration",
                "magical"
            ]
        },
        "usage": {
            "value": "held-in-one-hand"
        },
        "weight": {
            "value": "1"
        }
    },
    "effects": [],
    "flags": {},
    "img": "systems/pf2e/icons/equipment/shields/specific-shields/arrow-catching-shield.jpg",
    "name": "Arrow-Catching Shield",
    "permission": {
        "default": 0
    },
    "type": "armor"
}
