{
    "_id": "k9BYXA4b7Z4Hy6lZ",
    "data": {
        "baseItem": null,
        "brokenThreshold": {
            "value": 0
        },
        "bulkCapacity": {
            "value": ""
        },
        "collapsed": {
            "value": false
        },
        "containerId": {
            "value": ""
        },
        "description": {
            "chat": "",
            "unidentified": "",
            "value": "<p>Symbols of musical notes decorate this gold-framed wooden cube measuring just under 1 foot by 1 foot. A funnel-shaped trumpet protrudes from the box's top at an angle, though it feels surprisingly light. The box has a large button on its side, and it must be set down on a flat surface in order to activate it; while it's activated, the rumbling and churning gears inside the box make it impossible to carry without dropping it.<br /><br /><strong>Activate</strong><span style=\"font-family: 'Pathfinder2eActions'; font-size: 1.8em; display: inline;\">A</span>Interact;<strong>Effect</strong> You press the button on the side of the music box, causing it to erupt with a cacophonous and discordant melody for 1 minute while it plays its entire melody, and it can't be shut off prematurely. The music is so loud that any creature within 60 feet must succeed at a DC 24 Fortitude save or become @Compendium[pf2e.conditionitems.Deafened]{Deafened} for as long as they remain within 60 feet of the music box, and for 1 minute thereafter. On a critical success, a creature need not make any more saves and is temporarily immune to the<em>deafening music box</em>for the next 24 hours; on a success, the creature must attempt a new save each round it remains within 60 feet of the music box.</p>"
        },
        "equipped": {
            "value": false
        },
        "equippedBulk": {
            "value": ""
        },
        "hardness": {
            "value": 0
        },
        "hp": {
            "value": 0
        },
        "identification": {
            "status": "identified"
        },
        "identified": {
            "value": true
        },
        "invested": {
            "value": false
        },
        "level": {
            "value": "8"
        },
        "maxHp": {
            "value": 0
        },
        "negateBulk": {
            "value": "0"
        },
        "preciousMaterial": {
            "value": ""
        },
        "preciousMaterialGrade": {
            "value": ""
        },
        "price": {
            "value": "500 gp"
        },
        "quantity": {
            "value": "1"
        },
        "rules": [],
        "size": {
            "value": "med"
        },
        "source": {
            "value": ""
        },
        "stackGroup": {
            "value": ""
        },
        "traits": {
            "custom": "",
            "rarity": {
                "value": "uncommon"
            },
            "usage": {
                "value": "held-in-two-hands"
            },
            "value": [
                "auditory",
                "evocation",
                "magical"
            ]
        },
        "usage": {
            "value": "held-in-one-hand"
        },
        "weight": {
            "value": "1"
        }
    },
    "effects": [],
    "flags": {},
    "img": "systems/pf2e/icons/equipment/held-items/deafening-music-box.jpg",
    "name": "Deafening Music Box",
    "permission": {
        "default": 0
    },
    "type": "equipment"
}
