{
    "_id": "aLA7pikfeNIAAGLw",
    "data": {
        "armor": {
            "value": 3
        },
        "armorType": {
            "value": "medium"
        },
        "baseItem": null,
        "brokenThreshold": {
            "value": null
        },
        "bulkCapacity": {
            "value": ""
        },
        "check": {
            "value": -2
        },
        "collapsed": {
            "value": false
        },
        "containerId": {
            "value": ""
        },
        "description": {
            "chat": "",
            "unidentified": "",
            "value": "<section class=\"content\">\n<p>Made of overlapping, lustrous black scales of standard-grade adamantine, this +2 greater resilient @Compendium[pf2e.equipment-srd.Fortification]{Fortification} adamantine scale mail seems to momentarily thicken at the point of impact when hit.</p>\n<p>Whenever the armor's fortification rune successfully turns a significant foe's critical hit into a normal hit, one of the scales on the armor turns violet. You gain resistance to physical damage equal to the number of violet scales, to a maximum of 8.</p>\n<p>At dawn each day, all the violet scales return to normal.</p>\n<hr /></section>\n<section class=\"content extra\">\n<p><strong>Craft Requirements</strong> The initial raw materials must include 1,600 gp of adamantine.</p>\n</section>"
        },
        "dex": {
            "value": 2
        },
        "equipped": {
            "value": false
        },
        "equippedBulk": {
            "value": "3"
        },
        "group": {
            "value": "composite"
        },
        "hardness": {
            "value": null
        },
        "hp": {
            "value": null
        },
        "identification": {
            "status": "identified"
        },
        "identified": {
            "value": true
        },
        "invested": {
            "value": false
        },
        "level": {
            "value": 17
        },
        "maxHp": {
            "value": null
        },
        "negateBulk": {
            "value": "0"
        },
        "potency": {},
        "potencyRune": {
            "value": "2"
        },
        "preciousMaterial": {
            "value": "adamantine"
        },
        "preciousMaterialGrade": {
            "value": "standard"
        },
        "price": {
            "value": "12,800 gp"
        },
        "propertyRune1": {
            "value": "fortification"
        },
        "propertyRune2": {
            "value": ""
        },
        "propertyRune3": {
            "value": ""
        },
        "propertyRune4": {
            "value": ""
        },
        "quantity": {
            "value": 1
        },
        "resiliencyRune": {
            "value": "greaterResilient"
        },
        "resilient": {},
        "rules": [
            {
                "key": "PF2E.RuleElement.FlatModifier",
                "predicate": {
                    "not": [
                        "unburdened-iron"
                    ]
                },
                "roll-options": [
                    "all"
                ],
                "selector": "speed",
                "type": "untyped",
                "value": {
                    "brackets": [
                        {
                            "end": 13,
                            "value": -5
                        }
                    ],
                    "field": "actor|data.abilities.str.value"
                }
            }
        ],
        "size": {
            "value": "med"
        },
        "source": {
            "value": ""
        },
        "speed": {
            "value": "-5 ft"
        },
        "stackGroup": {
            "value": ""
        },
        "strength": {
            "value": 14
        },
        "traits": {
            "custom": "",
            "rarity": {
                "value": "uncommon"
            },
            "value": [
                "abjuration",
                "invested",
                "magical"
            ]
        },
        "usage": {
            "value": "wornarmor"
        },
        "weight": {
            "value": "4"
        }
    },
    "effects": [],
    "flags": {},
    "img": "systems/pf2e/icons/equipment/armor/specific-magic-armor/impenetrable-scale.jpg",
    "name": "Impenetrable Scale",
    "permission": {
        "default": 0
    },
    "type": "armor"
}
