{
    "_id": "yw1kPxsdCoDUzOaE",
    "data": {
        "baseItem": null,
        "brokenThreshold": {
            "value": 0
        },
        "bulkCapacity": {
            "value": ""
        },
        "collapsed": {
            "value": false
        },
        "containerId": {
            "value": ""
        },
        "description": {
            "chat": "",
            "unidentified": "",
            "value": "<p>Handheld instruments include bagpipes, a small set of chimes, small drums, fiddles and viols, flutes and recorders, small harps, lutes, trumpets, and similarly sized instruments. The GM might rule that an especially large handheld instrument (like a tuba) has greater Bulk. Heavy instruments such as large drums, a full set of chimes, and keyboard instruments are less portable and generally need to be stationary while played. A virtuoso instrument gives a +1 item bonus to Performance checks using that instrument.</p>\n<hr />\n<p>Automatically applied effects:</p>\n<ul>\n<li>+1 item bonus to Performance checks using that instrument.</li>\n</ul>"
        },
        "equipped": {
            "value": false
        },
        "equippedBulk": {
            "value": ""
        },
        "hardness": {
            "value": 0
        },
        "hp": {
            "value": 0
        },
        "identification": {
            "status": "identified"
        },
        "identified": {
            "value": true
        },
        "invested": {
            "value": false
        },
        "level": {
            "value": 3
        },
        "maxHp": {
            "value": 0
        },
        "negateBulk": {
            "value": "0"
        },
        "preciousMaterial": {
            "value": ""
        },
        "preciousMaterialGrade": {
            "value": ""
        },
        "price": {
            "value": "100 gp"
        },
        "quantity": {
            "value": 1
        },
        "rules": [
            {
                "key": "PF2E.RuleElement.FlatModifier",
                "label": "Virtuoso Instrument (playing it)",
                "predicate": {
                    "all": [
                        "playing"
                    ]
                },
                "selector": "performance",
                "type": "item",
                "value": 1
            }
        ],
        "size": {
            "value": "med"
        },
        "source": {
            "value": ""
        },
        "stackGroup": {
            "value": ""
        },
        "traits": {
            "custom": "",
            "rarity": {
                "value": "common"
            },
            "usage": {
                "value": "held-in-two-hands"
            },
            "value": []
        },
        "usage": {
            "value": "held-in-one-hand"
        },
        "weight": {
            "value": "16"
        }
    },
    "effects": [],
    "flags": {},
    "img": "systems/pf2e/icons/equipment/adventuring-gear/musical-instrument-handheld-virtuoso-heavy.jpg",
    "name": "Musical Instrument (Virtuoso heavy)",
    "permission": {
        "default": 0
    },
    "type": "equipment"
}
