{
    "_id": "fuDYKpDN9RmCX7do",
    "data": {
        "baseItem": null,
        "brokenThreshold": {
            "value": 0
        },
        "bulkCapacity": {
            "value": ""
        },
        "collapsed": {
            "value": false
        },
        "containerId": {
            "value": ""
        },
        "description": {
            "chat": "",
            "unidentified": "",
            "value": "<p>Worn on a chain around the neck, a Razmiri wayfinder functions as a compass and provides its wearer a +1 item bonus to Deception checks to Lie or Impersonate. Razmiri wayfinders can also be used to grant temporary healing, making it easier for the wearer to impersonate a divine spellcaster.</p>\n<hr />\n<p><strong>Activate</strong> <span style=\"font-family: 'Pathfinder2eActions'; font-size: 1.8em; display: inline;\">1</span> envision;</p>\n<p><strong>Frequency</strong> three times per day;</p>\n<p><strong>Effect</strong> You touch an adjacent creature, granting them <a class=\"inline-roll roll\" title=\"3d8\" data-mode=\"roll\" data-flavor=\"\" data-formula=\"3d8\"> 3d8</a> temporary Hit Points for 1 hour.</p>\n<hr />\n<p><strong>Activate</strong> <span style=\"font-family: 'Pathfinder2eActions'; font-size: 1.8em; display: inline;\">1</span> manipulate;</p>\n<p><strong>Frequency</strong> once per day;</p>\n<p><strong>Effect</strong> You touch an adjacent creature and attempt a counteract check against one poison or disease afflicting the creature. On a success, you halt the effects of the poison or disease for 1 day, rather than removing it. This temporarily relieves any penalties imposed by the affliction but doesn't cure the effect or count against its duration; the poison or disease is merely halted for a time, and it resumes where it left off once this effect ends.</p>\n<hr />\n<p>Automatically applied effects:</p>\n<ul>\n<li>+1 item bonus to Deception checks to Lie or Impersonate</li>\n</ul>"
        },
        "equipped": {
            "value": false
        },
        "equippedBulk": {
            "value": ""
        },
        "hardness": {
            "value": 0
        },
        "hp": {
            "value": 0
        },
        "identification": {
            "status": "identified"
        },
        "identified": {
            "value": true
        },
        "invested": {
            "value": false
        },
        "level": {
            "value": "10"
        },
        "maxHp": {
            "value": 0
        },
        "negateBulk": {
            "value": "0"
        },
        "originalName": "",
        "preciousMaterial": {
            "value": ""
        },
        "preciousMaterialGrade": {
            "value": ""
        },
        "price": {
            "value": "900 gp"
        },
        "quantity": {
            "value": "1"
        },
        "rules": [
            {
                "key": "PF2E.RuleElement.FlatModifier",
                "label": "Razmiri Wayfinder (Lie or Impersonate)",
                "predicate": {
                    "any": [
                        "action:lie",
                        "action:impersonate"
                    ]
                },
                "selector": "deception",
                "type": "item",
                "value": 1
            }
        ],
        "size": {
            "value": "med"
        },
        "source": {
            "value": ""
        },
        "stackGroup": {
            "value": ""
        },
        "traits": {
            "custom": "",
            "rarity": {
                "value": "uncommon"
            },
            "usage": {
                "value": "worn"
            },
            "value": [
                "illusion",
                "magical",
                "necromancy"
            ]
        },
        "usage": {
            "value": "held-in-one-hand"
        },
        "weight": {
            "value": "-"
        }
    },
    "effects": [],
    "flags": {},
    "img": "systems/pf2e/icons/equipment/worn-items/other-worn-items/wayfinder.jpg",
    "name": "Razmiri Wayfinder",
    "permission": {
        "default": 0
    },
    "type": "equipment"
}
