{
    "_id": "IIV5L4y8zLH17mAK",
    "data": {
        "MAP": {
            "value": ""
        },
        "ability": {
            "value": "str"
        },
        "baseItem": "staff",
        "bonus": {
            "value": 0
        },
        "bonusDamage": {
            "value": 0
        },
        "brokenThreshold": {
            "value": 0
        },
        "bulkCapacity": {
            "value": ""
        },
        "collapsed": {
            "value": false
        },
        "containerId": {
            "value": ""
        },
        "damage": {
            "damageType": "bludgeoning",
            "dice": 1,
            "die": "d4",
            "value": ""
        },
        "description": {
            "chat": "",
            "unidentified": "",
            "value": "<p>This twisted and grim-looking staff is adorned with hideous skull and bone motifs. While wielding the staff, you gain a +2 circumstance bonus to checks to identify necromancy magic.</p>\n<p><strong>Activate</strong> Cast a Spell</p>\n<p><strong>Effect</strong> You expend a number of charges from the staff to cast a spell from its list.</p>\n<ul>\n<li><strong>Cantrip</strong> @Compendium[pf2e.spells-srd.Chill Touch]{Chill Touch}</li>\n<li><strong>1st</strong> @Compendium[pf2e.spells-srd.Grim Tendrils]{Grim Tendrils}, @Compendium[pf2e.spells-srd.Ray of Enfeeblement]{Ray of Enfeeblement}</li>\n<li><strong>2nd</strong> @Compendium[pf2e.spells-srd.Deafness]{Deafness}, @Compendium[pf2e.spells-srd.Gentle Repose]{Gentle Repose}</li>\n<li><strong>3rd</strong> @Compendium[pf2e.spells-srd.Blindness]{Blindness}, @Compendium[pf2e.spells-srd.Vampiric Touch]{Vampiric Touch}</li>\n<li><strong>4th</strong> @Compendium[pf2e.spells-srd.Grim Tendrils]{Grim Tendrils}, @Compendium[pf2e.spells-srd.Vampiric Touch]{Vampiric Touch}</li>\n<li><strong>5th</strong> @Compendium[pf2e.spells-srd.Cloudkill]{Cloudkill}, @Compendium[pf2e.spells-srd.Gentle Repose]{Gentle Repose}</li>\n<li><strong>6th</strong> @Compendium[pf2e.spells-srd.Grim Tendrils]{Grim Tendrils}, @Compendium[pf2e.spells-srd.Vampiric Exsanguination]{Vampiric Exsanguination}</li>\n</ul>\n<p><strong>Craft Requirements</strong> Supply one casting of all listed levels of all listed spells.</p>\n<hr />\n<p>Automatically applied effects:</p>\n<ul>\n<li>+2 circumstance bonus to checks to identify necromancy magic</li>\n</ul>"
        },
        "equipped": {
            "value": false
        },
        "equippedBulk": {
            "value": ""
        },
        "group": {
            "value": "club"
        },
        "hands": {
            "value": ""
        },
        "hardness": {
            "value": 0
        },
        "hp": {
            "value": 0
        },
        "identification": {
            "status": "identified"
        },
        "identified": {
            "value": true
        },
        "invested": {
            "value": false
        },
        "level": {
            "value": 14
        },
        "maxHp": {
            "value": 0
        },
        "negateBulk": {
            "value": "0"
        },
        "originalName": "",
        "potencyRune": {
            "value": ""
        },
        "preciousMaterial": {
            "value": ""
        },
        "preciousMaterialGrade": {
            "value": ""
        },
        "price": {
            "value": "4,000 gp"
        },
        "property1": {
            "critDamage": "",
            "critDamageType": "",
            "critDice": null,
            "critDie": "",
            "criticalConditionType": "",
            "criticalConditionValue": null,
            "damageType": "",
            "dice": null,
            "die": "",
            "strikeConditionType": "",
            "strikeConditionValue": null,
            "value": ""
        },
        "propertyRune1": {
            "value": ""
        },
        "propertyRune2": {
            "value": ""
        },
        "propertyRune3": {
            "value": ""
        },
        "propertyRune4": {
            "value": ""
        },
        "quantity": {
            "value": 1
        },
        "range": {
            "value": "melee"
        },
        "reload": {
            "value": ""
        },
        "rules": [
            {
                "key": "PF2E.RuleElement.FlatModifier",
                "label": "Staff of Necromancy (identify necromancy magic)",
                "predicate": {
                    "all": [
                        "action:identify-magic",
                        "necromancy"
                    ]
                },
                "selector": "skill-check",
                "type": "circumstance",
                "value": 2
            }
        ],
        "size": {
            "value": "med"
        },
        "source": {
            "value": ""
        },
        "splashDamage": {
            "value": 0
        },
        "stackGroup": {
            "value": ""
        },
        "strikingRune": {
            "value": ""
        },
        "traits": {
            "custom": "",
            "rarity": {
                "value": "common"
            },
            "value": [
                "magical",
                "necromancy",
                "staff",
                "two-hand-d8"
            ]
        },
        "usage": {
            "value": "held-in-one-hand"
        },
        "weaponType": {
            "value": "simple"
        },
        "weight": {
            "value": "1"
        }
    },
    "effects": [],
    "flags": {},
    "img": "systems/pf2e/icons/equipment/staves/staff-of-necromancy.jpg",
    "name": "Staff of Necromancy (Major)",
    "permission": {
        "default": 0
    },
    "type": "weapon"
}
