{
    "_id": "Ejmv9IHGp9Ad9dgu",
    "data": {
        "baseItem": null,
        "brokenThreshold": {
            "value": 0
        },
        "bulkCapacity": {
            "value": ""
        },
        "collapsed": {
            "value": false
        },
        "containerId": {
            "value": ""
        },
        "description": {
            "chat": "",
            "unidentified": "",
            "value": "<p>You need thieves' tools to Pick Locks or Disable Devices (of some types) using the Thievery skill. Infiltrator thieves' tools add a +1 item bonus to checks to Pick Locks and Disable Devices.</p>\n<p>Smaller and made of stronger materials than most sets of thieves' tools, the items in this kit are much easier to conceal. You gain a +1 item bonus to Stealth checks to Conceal these tools.</p>\n<p>If your thieves' tools are broken, you can repair them by replacing the lock picks with @Compendium[pf2e.equipment-srd.Thieves' Tools (Concealable Picks)]{Replacement Picks} appropriate to your tools; this doesn't require using the Repair action.</p>\n<hr />\n<p>Automatically applied effects:</p>\n<ul>\n<li> +1 item bonus to checks to Pick Locks and Disable Devices</li>\n<li>+1 item bonus to Stealth checks to Conceal these tools</li>\n</ul>"
        },
        "equipped": {
            "value": false
        },
        "equippedBulk": {
            "value": ""
        },
        "hardness": {
            "value": 0
        },
        "hp": {
            "value": 0
        },
        "identification": {
            "status": "identified"
        },
        "identified": {
            "value": true
        },
        "invested": {
            "value": false
        },
        "level": {
            "value": "4"
        },
        "maxHp": {
            "value": 0
        },
        "negateBulk": {
            "value": "0"
        },
        "originalName": "",
        "preciousMaterial": {
            "value": ""
        },
        "preciousMaterialGrade": {
            "value": ""
        },
        "price": {
            "value": "80 gp"
        },
        "quantity": {
            "value": "1"
        },
        "rules": [
            {
                "key": "PF2E.RuleElement.FlatModifier",
                "label": "Thieves' Tools (Pick Lock & Disable Devices)",
                "predicate": {
                    "any": [
                        "action:disable-device",
                        "action:pick-a-lock"
                    ]
                },
                "selector": "thievery",
                "type": "item",
                "value": 1
            },
            {
                "key": "PF2E.RuleElement.FlatModifier",
                "label": "Thieves' Tools (Conceal tools)",
                "predicate": {
                    "all": [
                        "action:conceal-an-object",
                        "target:concealable-tools"
                    ]
                },
                "selector": "stealth",
                "type": "item",
                "value": 1
            }
        ],
        "size": {
            "value": "med"
        },
        "source": {
            "value": ""
        },
        "stackGroup": {
            "value": ""
        },
        "traits": {
            "custom": "",
            "rarity": {
                "value": "uncommon"
            },
            "usage": {
                "value": "held-in-two-hands"
            },
            "value": []
        },
        "usage": {
            "value": "held-in-one-hand"
        },
        "weight": {
            "value": "L"
        }
    },
    "effects": [],
    "flags": {},
    "img": "systems/pf2e/icons/equipment/adventuring-gear/thieves-tools.jpg",
    "name": "Thieves' Tools (Concealable)",
    "permission": {
        "default": 0
    },
    "type": "equipment"
}
