{
    "_id": "YZxq8rGPiLPIKWIQ",
    "data": {
        "baseItem": null,
        "brokenThreshold": {
            "value": 0
        },
        "bulkCapacity": {
            "value": ""
        },
        "collapsed": {
            "value": false
        },
        "containerId": {
            "value": ""
        },
        "description": {
            "chat": "",
            "unidentified": "",
            "value": "<p>A typical Pathfinder writ of authenticity confirms the holder's status as a member of the Pathfinder Society and their intended business.</p>\n<p>Most writs are pieces of fine parchment folded, bound with gold cord, and sealed with three wax seals. The top seal is always the Glyph of the Open Road and the middle one is the Envoy's Alliance open door emblem. The bottom seal uses the preparer's personal sigil.</p>\n<p>Inside, the text describes a specific instance of a legitimate business activity, with blanks for the Pathfinder to fill in and personalize the writ to the persons and activity desired.</p>\n<p>Presenting a writ of authenticity grants a +2 item bonus to Make a Request for the associated business, assuming the writ is legitimate and the viewer expects to work with the Pathfinder Society for that activity.</p>\n<hr />\n<p>Automatically applied effects:</p>\n<ul>\n<li>+2 item bonus to Make a Request for the associated business</li>\n</ul>"
        },
        "equipped": {
            "value": false
        },
        "equippedBulk": {
            "value": ""
        },
        "hardness": {
            "value": 0
        },
        "hp": {
            "value": 0
        },
        "identification": {
            "status": "identified"
        },
        "identified": {
            "value": true
        },
        "invested": {
            "value": false
        },
        "level": {
            "value": "2"
        },
        "maxHp": {
            "value": 0
        },
        "negateBulk": {
            "value": "0"
        },
        "originalName": "",
        "preciousMaterial": {
            "value": ""
        },
        "preciousMaterialGrade": {
            "value": ""
        },
        "price": {
            "value": "5 gp"
        },
        "quantity": {
            "value": "1"
        },
        "rules": [
            {
                "key": "PF2E.RuleElement.FlatModifier",
                "label": "Writ of Authenticity (Request from business)",
                "predicate": {
                    "all": [
                        "action:make-a-request",
                        "associated-business"
                    ]
                },
                "selector": "diplomacy",
                "type": "item",
                "value": 2
            }
        ],
        "size": {
            "value": "med"
        },
        "source": {
            "value": ""
        },
        "stackGroup": {
            "value": ""
        },
        "traits": {
            "custom": "",
            "rarity": {
                "value": "uncommon"
            },
            "usage": {
                "value": "held-in-one-hand"
            },
            "value": []
        },
        "usage": {
            "value": "held-in-one-hand"
        },
        "weight": {
            "value": "-"
        }
    },
    "effects": [],
    "flags": {},
    "img": "systems/pf2e/icons/equipment/adventuring-gear/writ-of-authenticity.jpg",
    "name": "Writ of Authenticity",
    "permission": {
        "default": 0
    },
    "type": "equipment"
}
