{
    "_id": "hPPdfkiRZ1LUpN2h",
    "data": {
        "attributes": {
            "ac": {
                "value": 43
            },
            "hardness": 0,
            "hasHealth": true,
            "hp": {
                "details": "",
                "max": 128,
                "temp": 0,
                "tempmax": 0,
                "value": 128
            },
            "stealth": {
                "details": "(legendary) or DC 47 to notice the dagger left in the pool start to move on its own.",
                "value": 37
            }
        },
        "creatureType": "",
        "details": {
            "description": "An elven woman wearing a robe stands in the water. She beckons anyone who enters the room to join her in the pool.",
            "disable": "Deception 45 (legendary) to pretend to be Erveniss and ask for forgiveness, Diplomacy 45 (legendary) to convince Damurdiel to stand down (elves who are masters in Diplomacy can attempt the check as if they were legendary instead), or Religion 40 (legendary) to call upon Calistria to calm Damurdiel's spirit.",
            "isComplex": true,
            "level": 1,
            "reset": "Damurdiel's spirit subsides once she is destroyed or if she manages to reduce a creature to 0 Hit Points. She returns after 1 minute.",
            "routine": "(3 actions) The haunt attempts to Strike with the dagger."
        },
        "flavourText": "",
        "nethysUrl": "",
        "recallKnowledgeText": "",
        "saves": {
            "fortitude": {
                "rank": 0,
                "saveDetail": "",
                "value": 26
            },
            "reflex": {
                "rank": 0,
                "saveDetail": "",
                "value": 26
            },
            "will": {
                "rank": 0,
                "saveDetail": "",
                "value": 35
            }
        },
        "schema": {
            "version": {
                "value": ""
            }
        },
        "sidebarText": "",
        "source": {
            "value": ""
        },
        "statusEffects": [],
        "traits": {
            "ci": [],
            "di": {
                "custom": "",
                "selected": {},
                "value": []
            },
            "dr": [],
            "dv": [],
            "rarity": {
                "value": "common"
            },
            "size": {
                "value": "med"
            },
            "traits": {
                "custom": "",
                "value": [
                    "haunt"
                ]
            }
        }
    },
    "effects": [],
    "flags": {},
    "img": "systems/pf2e/icons/default-icons/hazard.svg",
    "items": [
        {
            "_id": "QVKGD3jLsVMeTZzu",
            "data": {
                "actionCategory": {
                    "value": ""
                },
                "actionType": {
                    "value": "reaction"
                },
                "actions": {
                    "value": ""
                },
                "description": {
                    "chat": "",
                    "unidentified": "",
                    "value": "<p><strong>Trigger</strong>: A creature approaches within 5 feet of the pool's edge;</p>\n<p><strong>Effect</strong>: The ghostly elf causes a dagger to rise out of the waters and then fling toward the triggering creature. If the attack is a hit, it is a critical hit instead. The haunt then rolls initiative.</p>"
                },
                "requirements": {
                    "value": ""
                },
                "rules": [],
                "slug": null,
                "source": {
                    "value": ""
                },
                "traits": {
                    "custom": "",
                    "rarity": {
                        "value": "common"
                    },
                    "selected": {
                        "attack": "Attack"
                    },
                    "value": [
                        "attack"
                    ]
                },
                "trigger": {
                    "value": ""
                },
                "usage": {
                    "value": "held-in-one-hand"
                },
                "weapon": {
                    "value": ""
                }
            },
            "effects": [],
            "flags": {},
            "img": "systems/pf2e/icons/actions/Reaction.png",
            "name": "Surprise Strike",
            "sort": 100000,
            "type": "action"
        },
        {
            "_id": "zgALCNYNRMkV6Bhv",
            "data": {
                "attack": {
                    "value": ""
                },
                "attackEffects": {
                    "value": []
                },
                "baseItem": null,
                "bonus": {
                    "value": 40
                },
                "brokenThreshold": {
                    "value": 0
                },
                "bulkCapacity": {
                    "value": ""
                },
                "collapsed": {
                    "value": false
                },
                "containerId": {
                    "value": ""
                },
                "damageRolls": {
                    "rcb99ha9jg7r6cjk3yh269": {
                        "damage": "4d4+10",
                        "damageType": "piercing"
                    },
                    "rf7se4fxlnddwm36t0vt9": {
                        "damage": "20",
                        "damageType": "negative"
                    }
                },
                "description": {
                    "chat": "",
                    "unidentified": "",
                    "value": ""
                },
                "equipped": {
                    "value": false
                },
                "equippedBulk": {
                    "value": ""
                },
                "hardness": {
                    "value": 0
                },
                "hp": {
                    "value": 0
                },
                "identification": {
                    "status": "identified"
                },
                "identified": {
                    "value": false
                },
                "invested": {
                    "value": false
                },
                "maxHp": {
                    "value": 0
                },
                "negateBulk": {
                    "value": "0"
                },
                "preciousMaterial": {
                    "value": ""
                },
                "preciousMaterialGrade": {
                    "value": ""
                },
                "price": {
                    "value": 0
                },
                "property1": {
                    "critDamage": "",
                    "critDamageType": "",
                    "critDice": 0,
                    "critDie": "",
                    "damageType": "",
                    "dice": 0,
                    "die": "",
                    "value": ""
                },
                "property2": {
                    "critDamage": "",
                    "critDamageType": "",
                    "critDice": 0,
                    "critDie": "",
                    "damageType": "",
                    "dice": 0,
                    "die": "",
                    "value": ""
                },
                "property3": {
                    "critDamage": "",
                    "critDamageType": "",
                    "critDice": 0,
                    "critDie": "",
                    "damageType": "",
                    "dice": 0,
                    "die": "",
                    "value": ""
                },
                "quantity": {
                    "value": 1
                },
                "rules": [],
                "size": {
                    "value": "med"
                },
                "slug": null,
                "source": {
                    "value": ""
                },
                "stackGroup": {
                    "value": ""
                },
                "traits": {
                    "custom": "",
                    "rarity": {
                        "value": "common"
                    },
                    "selected": {
                        "agile": "Agile",
                        "thrown-10": "Thrown 10 ft.",
                        "versatile-s": "Versatile S"
                    },
                    "value": [
                        "agile",
                        "thrown-10",
                        "versatile-s"
                    ]
                },
                "usage": {
                    "value": "held-in-one-hand"
                },
                "weaponType": {
                    "value": "ranged"
                },
                "weight": {
                    "value": 0
                }
            },
            "effects": [],
            "flags": {},
            "img": "systems/pf2e/icons/default-icons/melee.svg",
            "name": "Dagger",
            "sort": 200000,
            "type": "melee"
        }
    ],
    "name": "Damurdiel's Vengeance",
    "permission": {
        "default": 0
    },
    "token": {
        "actorId": "hPPdfkiRZ1LUpN2h",
        "actorLink": false,
        "bar1": {
            "attribute": "attributes.hp"
        },
        "bar2": {},
        "brightLight": 0,
        "brightSight": 0,
        "dimLight": 0,
        "dimSight": 0,
        "displayBars": 20,
        "displayName": 20,
        "disposition": 0,
        "flags": {},
        "height": 1,
        "img": "systems/pf2e/icons/default-icons/hazard.svg",
        "lightAlpha": 1,
        "lightAngle": 360,
        "lightAnimation": {
            "intensity": 5,
            "speed": 5
        },
        "lockRotation": false,
        "name": "Damurdiel's Vengeance",
        "randomImg": false,
        "rotation": 0,
        "scale": 1,
        "sightAngle": 360,
        "tint": null,
        "vision": false,
        "width": 1
    },
    "type": "hazard"
}
