{
    "_id": "RDXXE7wMrSPCLv5k",
    "data": {
        "actionCategory": {
            "value": ""
        },
        "actionType": {
            "value": "action"
        },
        "actions": {
            "value": "1"
        },
        "description": {
            "chat": "",
            "unidentified": "",
            "value": "<p>You try to take a small object from another creature without being noticed. Typically, you can Steal only an object of negligible Bulk, and you automatically fail if the creature who has the object is in combat or on guard.</p>\n<p>Attempt a Thievery check to determine if you successfully Steal the object. The DC to Steal is usually the Perception DC of the creature wearing the object. This assumes the object is worn but not closely guarded (like a loosely carried pouch filled with coins, or an object within such a pouch). If the object is in a pocket or similarly protected, you take a -5 penalty to your Thievery check. The GM might increase the DC of your check if the nature of the object makes it harder to steal (such as a very small item in a large pack, or a sheet of parchment mixed in with other documents).</p>\n<p>You might also need to compare your Thievery check result against the Perception DCs of observers other than the person wearing the object. The GM may increase the Perception DCs of these observers if they're distracted.</p>\n<hr />\n<p><strong>Success</strong> You steal the item without the bearer noticing, or an observer doesn't see you take or attempt to take the item.</p>\n<p><strong>Failure</strong> The item's bearer notices your attempt before you can take the object, or an observer sees you take or attempt to take the item. The GM determines the response of any creature that notices your theft.</p>"
        },
        "requirements": {
            "value": ""
        },
        "rules": [],
        "source": {
            "value": ""
        },
        "traits": {
            "custom": "",
            "rarity": {
                "value": "common"
            },
            "value": [
                "manipulate",
                "skill"
            ]
        },
        "trigger": {
            "value": ""
        },
        "weapon": {
            "value": ""
        }
    },
    "effects": [],
    "flags": {},
    "img": "systems/pf2e/icons/actions/OneAction.png",
    "name": "Steal",
    "permission": {
        "default": 0
    },
    "type": "action"
}
