{
    "_id": "9PASRixhNM0ogqmG",
    "data": {
        "description": {
            "chat": "",
            "unidentified": "",
            "value": "<p>Granted by @Compendium[pf2e.equipment-srd.Triton's Conch]{Triton's Conch}</p>\n<hr />\n<p>Automatically applied effects:</p>\n<ul>\n<li>gain a +2 item bonus to Athletics checks to swim</li>\n</ul>"
        },
        "duration": {
            "expiry": "turn-start",
            "sustained": false,
            "unit": "minutes",
            "value": 1
        },
        "level": {
            "value": 9
        },
        "rules": [
            {
                "key": "PF2E.RuleElement.FlatModifier",
                "label": "Triton's Conch (Swim)",
                "predicate": {
                    "all": [
                        "swim"
                    ]
                },
                "selector": "athletics",
                "type": "item",
                "value": 2
            },
            {
                "key": "PF2E.RuleElement.TokenEffectIcon"
            }
        ],
        "source": {
            "value": ""
        },
        "start": {
            "initiative": null,
            "value": 0
        },
        "traits": {
            "custom": "",
            "rarity": {
                "value": "common"
            },
            "value": []
        }
    },
    "effects": [],
    "flags": {},
    "img": "systems/pf2e/icons/equipment/held-items/tritons-conch.jpg",
    "name": "Effect: Triton's Conch",
    "permission": {
        "default": 0
    },
    "type": "effect"
}
