{
    "_id": "84ML8enTqOOdXA8O",
    "data": {
        "actionCategory": {
            "value": ""
        },
        "actionType": {
            "value": "passive"
        },
        "actions": {
            "value": ""
        },
        "description": {
            "chat": "",
            "unidentified": "",
            "value": "<p><strong>Requirements</strong> You are wielding two melee weapons, <br />each in a different hand.</p>\n<hr />\n<p>You refine the precision of your unbelievable storm of blows. When you perform an Impossible Flurry, your first attack with each weapon instead takes the multiple attack penalty as though you had already made one attack this turn. All subsequent attacks take the maximum multiple attack penalty, as though you had already made two or more attacks this turn.</p>"
        },
        "featType": {
            "value": "class"
        },
        "level": {
            "value": "20"
        },
        "prerequisites": {
            "value": [
                {
                    "value": "Impossible Flurry"
                }
            ]
        },
        "rules": [],
        "source": {
            "value": ""
        },
        "traits": {
            "custom": "",
            "rarity": {
                "value": "common"
            },
            "value": [
                "ranger"
            ]
        }
    },
    "effects": [],
    "flags": {},
    "img": "systems/pf2e/icons/features/feats/feats.jpg",
    "name": "Accurate Flurry",
    "permission": {
        "default": 0
    },
    "type": "feat"
}
