{
    "_id": "hOD9de1ftfYRSEKn",
    "data": {
        "actionCategory": {
            "value": ""
        },
        "actionType": {
            "value": "reaction"
        },
        "actions": {
            "value": ""
        },
        "description": {
            "chat": "",
            "unidentified": "",
            "value": "<p><strong>Frequency</strong> once per day</p>\n<p><strong>Trigger</strong> A creature targets you with an attack or other targeted effect, and you can see the attacker.</p>\n<hr />\n<p>You create a blanket of fog in a 5–foot burst centered on one corner of your space. All creatures within that area are @Compendium[pf2e.conditionitems.Concealed]{Concealed}, and all others are concealed to them. This concealment applies to the triggering effect, and the fog lasts for 1 minute or until dispersed by a strong wind. After resolving the triggering effect, you Step. If an effect prevents you from Stepping, you attempt to Escape the effect and Step if you succeed.</p>"
        },
        "featType": {
            "value": "ancestry"
        },
        "level": {
            "value": 13
        },
        "location": "",
        "prerequisites": {
            "value": []
        },
        "rules": [],
        "source": {
            "value": ""
        },
        "traits": {
            "custom": "",
            "rarity": {
                "value": "common"
            },
            "value": [
                "sylph"
            ]
        },
        "usage": {
            "value": ""
        }
    },
    "effects": [],
    "flags": {},
    "img": "systems/pf2e/icons/features/feats/feats.jpg",
    "name": "Airy Step",
    "permission": {
        "default": 0
    },
    "type": "feat"
}
