{
    "_id": "ydgCsYsgqSkFWEDK",
    "data": {
        "actionCategory": {
            "value": ""
        },
        "actionType": {
            "value": "passive"
        },
        "actions": {
            "value": ""
        },
        "description": {
            "chat": "",
            "unidentified": "",
            "value": "<p>You descend from an angel-a winged messenger from Nirvana or one of the other celestial realms-which gives you a knack for cultures and languages.</p>\n<p>You gain the trained proficiency rank in Society. If you would automatically become trained in Society (from your background or class, for example), you instead become trained in a skill of your choice. You know the Celestial language, and you gain the @Compendium[pf2e.feats-srd.Multilingual]{Multilingual} skill feat.</p>"
        },
        "featType": {
            "value": "ancestry"
        },
        "level": {
            "value": "1"
        },
        "prerequisites": {
            "value": []
        },
        "rules": [],
        "source": {
            "value": ""
        },
        "traits": {
            "custom": "",
            "rarity": {
                "value": "common"
            },
            "value": [
                "aasimar",
                "lineage"
            ]
        }
    },
    "effects": [],
    "flags": {},
    "img": "systems/pf2e/icons/features/feats/feats.jpg",
    "name": "Angelkin",
    "permission": {
        "default": 0
    },
    "type": "feat"
}
