{
    "_id": "dmXd68ilbuGR6eUP",
    "data": {
        "actionCategory": {
            "value": ""
        },
        "actionType": {
            "value": "passive"
        },
        "actions": {
            "value": ""
        },
        "description": {
            "chat": "",
            "unidentified": "",
            "value": "<p><strong>Frequency</strong> once per hour</p>\n<p><strong>Trigger</strong> You fail a check against a trap, such as a Thievery check to @Compendium[pf2e.actionspf2e.Disable Device]{Disable} the trap or a Reflex save to avoid its effects.</p>\n<hr />\n<p>You are more than just skillful; your drive to find the secrets of the past manifests as a strange kind of luck. Reroll the failed check and use the new result.</p>"
        },
        "featType": {
            "value": "archetype"
        },
        "level": {
            "value": "8"
        },
        "prerequisites": {
            "value": [
                {
                    "value": "Archaeologist Dedication"
                }
            ]
        },
        "rules": [],
        "source": {
            "value": ""
        },
        "traits": {
            "custom": "",
            "rarity": {
                "value": "common"
            },
            "value": [
                "archetype",
                "fortune"
            ]
        }
    },
    "effects": [],
    "flags": {},
    "img": "systems/pf2e/icons/features/feats/feats.jpg",
    "name": "Archaeologist's Luck",
    "permission": {
        "default": 0
    },
    "type": "feat"
}
