{
    "_id": "evMhKTjzdiuDKwMX",
    "data": {
        "actionCategory": {
            "value": ""
        },
        "actionType": {
            "value": "passive"
        },
        "actions": {
            "value": ""
        },
        "description": {
            "chat": "",
            "unidentified": "",
            "value": "<p>You are a paragon of all that is good, your overwhelming aura causing evildoers to cower. All evil creatures within 15 feet of you take a -1 status penalty to checks and DCs that target you or your allies. This penalty is -2 against creatures you have taken an oath against (such as dragons if you have the Dragonslayer Oath feat). You can choose to suppress or resume this aura as an action, which has the concentrate trait.</p>"
        },
        "featType": {
            "value": "class"
        },
        "level": {
            "value": "20"
        },
        "prerequisites": {
            "value": [
                {
                    "value": "tenets of good"
                }
            ]
        },
        "rules": [],
        "source": {
            "value": ""
        },
        "traits": {
            "custom": "",
            "rarity": {
                "value": "common"
            },
            "value": [
                "champion"
            ]
        }
    },
    "effects": [],
    "flags": {},
    "img": "systems/pf2e/icons/features/feats/feats.jpg",
    "name": "Aura of Unbreakable Virtue",
    "permission": {
        "default": 0
    },
    "type": "feat"
}
