{
    "_id": "4hFeaF4MlqIHb6gb",
    "data": {
        "actionCategory": {
            "value": ""
        },
        "actionType": {
            "value": "passive"
        },
        "actions": {
            "value": ""
        },
        "description": {
            "chat": "",
            "unidentified": "",
            "value": "<p>Your lineage traces back to the realm of Elysium, and you can harness its magic using this connection. You can cast @Compendium[pf2e.spells-srd.Glitterdust]{Glitterdust} and @Compendium[pf2e.spells-srd.Remove Paralysis]{Remove Paral<em>ysis}</em> each once per day as 2nd-level divine innate spells.</p>"
        },
        "featType": {
            "value": "ancestry"
        },
        "level": {
            "value": "9"
        },
        "prerequisites": {
            "value": [
                {
                    "value": "Musetouched"
                }
            ]
        },
        "rules": [],
        "source": {
            "value": ""
        },
        "traits": {
            "custom": "",
            "rarity": {
                "value": "common"
            },
            "selected": {
                "aasimar": "Aasimar"
            },
            "value": [
                "aasimar"
            ]
        }
    },
    "effects": [],
    "flags": {},
    "img": "systems/pf2e/icons/features/feats/feats.jpg",
    "name": "Azata Magic",
    "permission": {
        "default": 0
    },
    "type": "feat"
}
