{
    "_id": "YDHr12qVA3XRjkLP",
    "data": {
        "actionCategory": {
            "value": ""
        },
        "actionType": {
            "value": "passive"
        },
        "actions": {
            "value": ""
        },
        "description": {
            "chat": "",
            "unidentified": "",
            "value": "<p>You emulate your vampiric parent's techniques for drawing blood from a victim. Your fangs Strikes deal an additional [[/r 1d4 #persistent bleed]] persistent bleed damage on a critical hit.</p>"
        },
        "featType": {
            "value": "ancestry"
        },
        "level": {
            "value": "9"
        },
        "prerequisites": {
            "value": [
                {
                    "value": "fangs unarmed attack"
                }
            ]
        },
        "rules": [],
        "source": {
            "value": ""
        },
        "traits": {
            "custom": "",
            "rarity": {
                "value": "common"
            },
            "value": [
                "dhampir"
            ]
        }
    },
    "effects": [],
    "flags": {},
    "img": "systems/pf2e/icons/features/feats/feats.jpg",
    "name": "Bloodletting Fangs",
    "permission": {
        "default": 0
    },
    "type": "feat"
}
