{
    "_id": "akCO62yBCJLjjCZJ",
    "data": {
        "actionCategory": {
            "value": ""
        },
        "actionType": {
            "value": "passive"
        },
        "actions": {
            "value": ""
        },
        "description": {
            "chat": "",
            "unidentified": "",
            "value": "<p>You can see through darkness. You gain @Compendium[pf2e.ancestryfeatures.Darkvision]{Darkvision}.</p>\n<p><strong>Special</strong> You can select this feat only at 1st level, and you can't retrain into or out of this feat.</p>"
        },
        "featType": {
            "value": "ancestry"
        },
        "level": {
            "value": "1"
        },
        "prerequisites": {
            "value": [
                {
                    "value": "low-light vision"
                }
            ]
        },
        "rules": [],
        "source": {
            "value": ""
        },
        "traits": {
            "custom": "",
            "rarity": {
                "value": "common"
            },
            "value": [
                "aasimar"
            ]
        }
    },
    "effects": [],
    "flags": {},
    "img": "systems/pf2e/icons/features/feats/feats.jpg",
    "name": "Celestial Eyes",
    "permission": {
        "default": 0
    },
    "type": "feat"
}
