{
    "_id": "sKDCoxMz2yKWLGRJ",
    "data": {
        "actionCategory": {
            "value": ""
        },
        "actionType": {
            "value": "passive"
        },
        "actions": {
            "value": ""
        },
        "description": {
            "chat": "",
            "unidentified": "",
            "value": "<p>You were raised with an aasimar or celestial relative, or you've devoted yourself to researching the secrets of the celestial realms.</p>\n<p>You gain the trained proficiency rank in Diplomacy and Religion. If you would automatically become trained in one of those skills (from your background or class, for example), you instead become trained in a skill of your choice.</p>\n<p>You also become trained in a Lore skill related to the celestial realm from which you trace your lineage (usually Elysium Lore, Heaven Lore, or Nirvana Lore).</p>"
        },
        "featType": {
            "value": "ancestry"
        },
        "level": {
            "value": "1"
        },
        "prerequisites": {
            "value": []
        },
        "rules": [],
        "source": {
            "value": ""
        },
        "traits": {
            "custom": "",
            "rarity": {
                "value": "common"
            },
            "value": [
                "aasimar"
            ]
        }
    },
    "effects": [],
    "flags": {},
    "img": "systems/pf2e/icons/features/feats/feats.jpg",
    "name": "Celestial Lore",
    "permission": {
        "default": 0
    },
    "type": "feat"
}
