{
    "_id": "JO3mcFvxjRp1V8XK",
    "data": {
        "actionCategory": {
            "value": ""
        },
        "actionType": {
            "value": "passive"
        },
        "actions": {
            "value": ""
        },
        "description": {
            "chat": "",
            "unidentified": "",
            "value": "<p>You can squeeze out of tight situations surprisingly quickly, gaining an advantage against foes that try to pin you down. You gain the @Compendium[pf2e.feats-srd.Quick Squeeze]{Quick Squeeze} skill feat, and if you're a master in Acrobatics, you can @Compendium[pf2e.actionspf2e.Squeeze]{Squeeze} at full Speed.</p>\n<p>Whenever you successfully @Compendium[pf2e.actionspf2e.Escape]{Escape} using Acrobatics, the creature you Escaped from is @Compendium[pf2e.conditionitems.Flat-Footed]{Flat-Footed} against the next attack you make against it before the end of your next turn.</p>"
        },
        "featType": {
            "value": "archetype"
        },
        "level": {
            "value": "4"
        },
        "prerequisites": {
            "value": [
                {
                    "value": "Acrobat Dedication"
                }
            ]
        },
        "rules": [],
        "source": {
            "value": ""
        },
        "traits": {
            "custom": "",
            "rarity": {
                "value": "common"
            },
            "value": [
                "archetype"
            ]
        }
    },
    "effects": [],
    "flags": {},
    "img": "systems/pf2e/icons/features/feats/feats.jpg",
    "name": "Contortionist",
    "permission": {
        "default": 0
    },
    "type": "feat"
}
