{
    "_id": "voYr7ygVcWmlg1f4",
    "data": {
        "actionCategory": {
            "value": ""
        },
        "actionType": {
            "value": "passive"
        },
        "actions": {
            "value": ""
        },
        "description": {
            "chat": "",
            "unidentified": "",
            "value": "<p>Your knowledge of items' construction allows you to discern their magical effects as well. You can use Crafting instead of a skill associated with a magic tradition to @Compendium[pf2e.actionspf2e.Identify Magic]{Identify Magic} on magic items, though not on any other sorts of magic.</p>"
        },
        "featType": {
            "value": "skill"
        },
        "level": {
            "value": "1"
        },
        "prerequisites": {
            "value": [
                {
                    "value": "trained in Crafting"
                }
            ]
        },
        "rules": [],
        "source": {
            "value": ""
        },
        "traits": {
            "custom": "",
            "rarity": {
                "value": "common"
            },
            "value": [
                "general",
                "skill"
            ]
        }
    },
    "effects": [],
    "flags": {},
    "img": "systems/pf2e/icons/features/feats/feats.jpg",
    "name": "Crafter's Appraisal",
    "permission": {
        "default": 0
    },
    "type": "feat"
}
