{
    "_id": "PqZZSo06BH5N7x7C",
    "data": {
        "actionCategory": {
            "value": ""
        },
        "actionType": {
            "value": "action"
        },
        "actions": {
            "value": "1"
        },
        "description": {
            "chat": "",
            "unidentified": "",
            "value": "<p><strong>Requirements</strong> Your most recent action was to cast a non-<br />cantrip spell.</p>\n<hr />\n<p>You transfer vestiges of magical energy to the air around you, creating a vortex that deflects ranged attacks. Until the start of your next turn, you gain a +1 status bonus to AC against ranged weapon attacks and physical ranged unarmed attacks.</p>"
        },
        "featType": {
            "value": "class"
        },
        "level": {
            "value": "6"
        },
        "prerequisites": {
            "value": []
        },
        "rules": [],
        "source": {
            "value": ""
        },
        "traits": {
            "custom": "",
            "rarity": {
                "value": "common"
            },
            "value": [
                "sorcerer"
            ]
        }
    },
    "effects": [],
    "flags": {},
    "img": "systems/pf2e/icons/features/feats/feats.jpg",
    "name": "Diverting Vortex",
    "permission": {
        "default": 0
    },
    "type": "feat"
}
