{
    "_id": "85eUthbjE9TnF4fo",
    "data": {
        "actionCategory": {
            "value": ""
        },
        "actionType": {
            "value": "passive"
        },
        "actions": {
            "value": ""
        },
        "description": {
            "chat": "",
            "unidentified": "",
            "value": "<p>You've sworn to slay evil dragons. Add the following tenet to your code after the others: \"You must slay evil dragons you encounter as long as you have a reasonable chance of success.</p>\n<p>Your @Compendium[pf2e.actionspf2e.Glimpse of Redemption]{Glimpse of Redemption's} resistance against damage from an evil dragon is 7 + your level.</p>\n<p>You don't consider evil dragons to be legitimate authorities, even in nations they rule.</p>"
        },
        "featType": {
            "value": "class"
        },
        "level": {
            "value": 2
        },
        "location": "",
        "prerequisites": {
            "value": [
                {
                    "value": "tenets of good"
                },
                {
                    "value": "redeemer cause"
                }
            ]
        },
        "rules": [],
        "source": {
            "value": ""
        },
        "traits": {
            "custom": "",
            "rarity": {
                "value": "common"
            },
            "value": [
                "champion",
                "oath"
            ]
        }
    },
    "effects": [],
    "flags": {},
    "img": "systems/pf2e/icons/features/feats/feats.jpg",
    "name": "Dragonslayer Oath (Redeemer)",
    "permission": {
        "default": 0
    },
    "type": "feat"
}
