{
    "_id": "kUv9eiP8Zhck70WZ",
    "data": {
        "actionCategory": {
            "value": ""
        },
        "actionType": {
            "value": "passive"
        },
        "actions": {
            "value": ""
        },
        "description": {
            "chat": "",
            "unidentified": "",
            "value": "<p>You know how to apply debilitations that are particularly troublesome for spellcasters. Add the following debilitations to the list you can choose from when you use @Compendium[pf2e.actionspf2e.Debilitating Strike]{Debilitating Strike}.</p>\n<ul>\n<li><strong>Debilitation</strong> The target is @Compendium[pf2e.conditionitems.Stupefied]{Stupefied 1}.</li>\n<li><strong>Debilitation</strong> The target can't @Compendium[pf2e.actionspf2e.Step]{Step}.</li>\n</ul>"
        },
        "featType": {
            "value": "class"
        },
        "level": {
            "value": 10
        },
        "location": "",
        "prerequisites": {
            "value": [
                {
                    "value": "eldritch trickster racket"
                },
                {
                    "value": "Debilitating Strike"
                }
            ]
        },
        "rules": [
            {
                "key": "PF2E.RuleElement.Note",
                "predicate": {
                    "all": [
                        "target:flatFooted"
                    ]
                },
                "selector": "damage",
                "text": "<span class='pf2-icon'>f</span> @Compendium[pf2e.feats-srd.Eldritch Debilitations]{Eldritch Debilitations}"
            }
        ],
        "source": {
            "value": ""
        },
        "traits": {
            "custom": "",
            "rarity": {
                "value": "common"
            },
            "value": [
                "rogue"
            ]
        }
    },
    "effects": [],
    "flags": {},
    "img": "systems/pf2e/icons/features/feats/feats.jpg",
    "name": "Eldritch Debilitations",
    "permission": {
        "default": 0
    },
    "type": "feat"
}
