{
    "_id": "RYUb5oxd46Yvdypz",
    "data": {
        "actionCategory": {
            "value": ""
        },
        "actionType": {
            "value": "passive"
        },
        "actions": {
            "value": ""
        },
        "description": {
            "chat": "",
            "unidentified": "",
            "value": "<p>Just as the Vale of Aroden retains light and life despite inhospitable surroundings, you can sustain yourself regardless of your environment. You don't need to eat, drink, or breathe.</p>\n<p>In addition, you can cast the @Compendium[pf2e.spells-srd.Wholeness of Body]{Wholeness of Body} ki spell almost effortlessly. You can cast it as a free action that triggers at the start of your turn.</p>"
        },
        "featType": {
            "value": "class"
        },
        "level": {
            "value": 20
        },
        "location": "",
        "prerequisites": {
            "value": [
                {
                    "value": "Wholeness of Body"
                }
            ]
        },
        "rules": [],
        "source": {
            "value": ""
        },
        "traits": {
            "custom": "",
            "rarity": {
                "value": "uncommon"
            },
            "selected": {
                "monk": "Monk"
            },
            "value": [
                "monk"
            ]
        }
    },
    "effects": [],
    "flags": {},
    "img": "systems/pf2e/icons/features/feats/feats.jpg",
    "name": "Endurance of the Rooted Tree",
    "permission": {
        "default": 0
    },
    "type": "feat"
}
