{
    "_id": "2pYCGPCQDHD3o7Jz",
    "data": {
        "actionCategory": {
            "value": ""
        },
        "actionType": {
            "value": "passive"
        },
        "actions": {
            "value": ""
        },
        "description": {
            "chat": "",
            "unidentified": "",
            "value": "<p>You can call forth a blasphemous word from the fiendish realms to punish your foes.</p>\n<p>Once per day, you can cast @Compendium[pf2e.spells-srd.Divine Decree]{Divine Decree} as a 7th-level divine innate spell. You must choose evil for the spell, and you can Cast the Spell regardless of whether you have a deity or what their alignment is.</p>"
        },
        "featType": {
            "value": "ancestry"
        },
        "level": {
            "value": "17"
        },
        "prerequisites": {
            "value": []
        },
        "rules": [],
        "source": {
            "value": ""
        },
        "traits": {
            "custom": "",
            "rarity": {
                "value": "common"
            },
            "value": [
                "tiefling"
            ]
        }
    },
    "effects": [],
    "flags": {},
    "img": "systems/pf2e/icons/features/feats/feats.jpg",
    "name": "Fiendish Word",
    "permission": {
        "default": 0
    },
    "type": "feat"
}
