{
    "_id": "scA2b141swxUPw8M",
    "data": {
        "actionCategory": {
            "value": ""
        },
        "actionType": {
            "value": "passive"
        },
        "actions": {
            "value": ""
        },
        "description": {
            "value": "<p>Garudas' marksmanship and magic are second nature to you. Whenever you critically hit using a bow, you apply the weapon's critical specialization effect.</p>"
        },
        "featType": {
            "value": "ancestry"
        },
        "level": {
            "value": 5
        },
        "location": "",
        "prerequisites": {
            "value": [
                {
                    "value": "Plumekith"
                }
            ]
        },
        "rules": [],
        "source": {
            "value": ""
        },
        "traits": {
            "custom": "",
            "rarity": {
                "value": "common"
            },
            "value": [
                "aasimar",
                "lineage"
            ]
        }
    },
    "effects": [],
    "flags": {},
    "img": "systems/pf2e/icons/features/feats/feats.jpg",
    "name": "Garuda's Squall",
    "permission": {
        "default": 0
    },
    "type": "feat"
}
