{
    "_id": "oNh2vedij8xbDbph",
    "data": {
        "actionCategory": {
            "value": ""
        },
        "actionType": {
            "value": "passive"
        },
        "actions": {
            "value": ""
        },
        "description": {
            "chat": "",
            "unidentified": "",
            "value": "<p>You have forged your body to comply with the commands of your mind-orders steeped in the Measure and the Chain. You gain expert proficiency in Intimidation (or in another skill in which you're trained of your choice, if you were already an expert in Intimidation). You gain the armor specialization effects of Hellknight plate, and your resistance from that armor specialization is 1 higher than normal. In addition, you gain a +1 circumstance bonus to Intimidation checks while wearing your Hellknight plate.</p>\n<hr />\n<p><strong>Special</strong> You cannot select another dedication feat until you have gained two other feats from the Hellknight or Hellknight armiger archetypes.</p>"
        },
        "featType": {
            "value": "archetype"
        },
        "level": {
            "value": 6
        },
        "location": "",
        "prerequisites": {
            "value": [
                {
                    "value": "Hellknight Armiger Dedication"
                },
                {
                    "value": "lawful alignment"
                },
                {
                    "value": "member of a Hellknight order"
                },
                {
                    "value": "passed the Hellknight Test"
                }
            ]
        },
        "rules": [],
        "source": {
            "value": ""
        },
        "traits": {
            "custom": "",
            "rarity": {
                "value": "uncommon"
            },
            "value": [
                "archetype",
                "dedication"
            ]
        }
    },
    "effects": [],
    "flags": {},
    "img": "systems/pf2e/icons/features/feats/feats.jpg",
    "name": "Hellknight Dedication",
    "permission": {
        "default": 0
    },
    "type": "feat"
}
