{
    "_id": "13zaW8ZHRWnRe2pj",
    "data": {
        "actionCategory": {
            "value": ""
        },
        "actionType": {
            "value": "passive"
        },
        "actions": {
            "value": ""
        },
        "description": {
            "chat": "",
            "unidentified": "",
            "value": "<p>You've studied traditional hobgoblin exercises and fieldcraft, all of which have a militaristic bent. You become trained in Athletics and Crafting. For each of these skills in which you were already trained, you become trained in a skill of your choice. You also become trained in Hobgoblin Lore.</p>"
        },
        "featType": {
            "value": "ancestry"
        },
        "level": {
            "value": "1"
        },
        "prerequisites": {
            "value": []
        },
        "rules": [],
        "source": {
            "value": ""
        },
        "traits": {
            "custom": "",
            "rarity": {
                "value": "common"
            },
            "value": [
                "hobgoblin"
            ]
        }
    },
    "effects": [],
    "flags": {},
    "img": "systems/pf2e/icons/features/feats/feats.jpg",
    "name": "Hobgoblin Lore",
    "permission": {
        "default": 0
    },
    "type": "feat"
}
