{
    "_id": "5iHB5ZFJ25XrZHye",
    "data": {
        "actionCategory": {
            "value": ""
        },
        "actionType": {
            "value": "reaction"
        },
        "actions": {
            "value": ""
        },
        "description": {
            "chat": "",
            "unidentified": "",
            "value": "<p><strong>Frequency</strong> once per day <br /><strong>Trigger</strong> You Disable a hazard. <br /><strong>Requirements</strong> The hazard isn't broken.</p>\n<hr />\n<p>You awaken a spirit of creation within the hazard. You learn the hazard’s effects. Once in the next 10 minutes, when you observe a creature take an action that would trigger one of the hazard’s reactions or free actions if you hadn’t Disabled it, you can use a reaction to rearm the hazard, causing the observed creature to trigger it immediately.</p>"
        },
        "featType": {
            "value": "ancestry"
        },
        "level": {
            "value": 13
        },
        "location": "",
        "prerequisites": {
            "value": []
        },
        "rules": [],
        "source": {
            "value": ""
        },
        "traits": {
            "custom": "",
            "rarity": {
                "value": "common"
            },
            "value": [
                "catfolk",
                "concentrate",
                "occult",
                "transmutation"
            ]
        },
        "usage": {
            "value": ""
        }
    },
    "effects": [],
    "flags": {},
    "img": "systems/pf2e/icons/features/feats/feats.jpg",
    "name": "Inspirit Hazard",
    "permission": {
        "default": 0
    },
    "type": "feat"
}
