{
    "_id": "Tn2iMLKvhZki1O3S",
    "data": {
        "actionCategory": {
            "value": ""
        },
        "actionType": {
            "value": "passive"
        },
        "actions": {
            "value": ""
        },
        "description": {
            "chat": "",
            "unidentified": "",
            "value": "<p>Your unarmed attacks blend tradition and training. Whenever you gain a class feature that grants you expert or greater proficiency in certain weapons, you also gain that proficiency in the claw and unarmed attacks you gained from lizardfolk ancestry feats.</p>"
        },
        "featType": {
            "value": "ancestry"
        },
        "level": {
            "value": "13"
        },
        "prerequisites": {
            "value": [
                {
                    "value": "Iruxi Unarmed Cunning"
                }
            ]
        },
        "rules": [],
        "source": {
            "value": ""
        },
        "traits": {
            "custom": "",
            "rarity": {
                "value": "common"
            },
            "value": [
                "lizardfolk"
            ]
        }
    },
    "effects": [],
    "flags": {},
    "img": "systems/pf2e/icons/features/feats/feats.jpg",
    "name": "Iruxi Unarmed Expertise",
    "permission": {
        "default": 0
    },
    "type": "feat"
}
