{
    "_id": "g3oJlWGHc74qX2z5",
    "data": {
        "actionCategory": {
            "value": ""
        },
        "actionType": {
            "value": "passive"
        },
        "actions": {
            "value": ""
        },
        "description": {
            "chat": "",
            "unidentified": "",
            "value": "<p>You trace your lineage to archons: embodiments of heavenly virtues, guardians of the seven-tiered mountain of Heaven, and nurturers of law and virtue within mortals. Your own virtue and orderly mind protect you from foes who would turn your emotions against you.</p>\n<p>You gain a +1 circumstance bonus to saves against emotion effects, and if you roll a success on a save against an emotion effect, you get a critical success instead.</p>"
        },
        "featType": {
            "value": "ancestry"
        },
        "level": {
            "value": "1"
        },
        "prerequisites": {
            "value": []
        },
        "rules": [],
        "source": {
            "value": ""
        },
        "traits": {
            "custom": "",
            "rarity": {
                "value": "common"
            },
            "value": [
                "aasimar",
                "lineage"
            ]
        }
    },
    "effects": [],
    "flags": {},
    "img": "systems/pf2e/icons/features/feats/feats.jpg",
    "name": "Lawbringer",
    "permission": {
        "default": 0
    },
    "type": "feat"
}
