{
    "_id": "VK2vAl1SfI4Qrtkt",
    "data": {
        "actionCategory": {
            "value": ""
        },
        "actionType": {
            "value": "passive"
        },
        "actions": {
            "value": ""
        },
        "description": {
            "chat": "",
            "unidentified": "",
            "value": "<p>You have incredible empathy for your friends and family, and you have an innate timing for helping others in distress. You can use the @Compendium[pf2e.actionspf2e.Aid]{Aid} reaction to grant a bonus to another creature's Will saving throw. As usual for Aid, you need to prepare by using an action on your turn to encourage the creature to bravely withstand the effect.</p>"
        },
        "featType": {
            "value": "ancestry"
        },
        "level": {
            "value": "5"
        },
        "prerequisites": {
            "value": []
        },
        "rules": [],
        "source": {
            "value": ""
        },
        "traits": {
            "custom": "",
            "rarity": {
                "value": "common"
            },
            "value": [
                "shoony"
            ]
        }
    },
    "effects": [],
    "flags": {},
    "img": "systems/pf2e/icons/features/feats/feats.jpg",
    "name": "Loyal Empath",
    "permission": {
        "default": 0
    },
    "type": "feat"
}
