{
    "_id": "xruboxaTF6nw8l7M",
    "data": {
        "actionCategory": {
            "value": ""
        },
        "actionType": {
            "value": "passive"
        },
        "actions": {
            "value": ""
        },
        "description": {
            "chat": "",
            "unidentified": "",
            "value": "<p>You have a connection to the muddier denizens of the Plane of Earth from its border with the Plane of Water, and your elemental lineage manifests as clay or mud, reflecting that bond. Your body’s mudlike quality makes it easy for you to compress and squeeze yourself through smaller areas. You gain the trained proficiency rank in Acrobatics. If you would automatically become trained in Acrobatics (from your background or class, for example), you instead become trained in a skill of your choice. You gain the @Compendium[pf2e.feats-srd.Quick Squeeze]{Quick Squeeze} skill feat.</p>"
        },
        "featType": {
            "value": "ancestry"
        },
        "level": {
            "value": 1
        },
        "location": "",
        "prerequisites": {
            "value": []
        },
        "rules": [],
        "source": {
            "value": ""
        },
        "traits": {
            "custom": "",
            "rarity": {
                "value": "common"
            },
            "value": [
                "lineage",
                "oread"
            ]
        },
        "usage": {
            "value": ""
        }
    },
    "effects": [],
    "flags": {},
    "img": "systems/pf2e/icons/features/feats/feats.jpg",
    "name": "Miresoul",
    "permission": {
        "default": 0
    },
    "type": "feat"
}
