{
    "_id": "n2hawNmzW7DBn1Lm",
    "data": {
        "actionCategory": {
            "value": ""
        },
        "actionType": {
            "value": "action"
        },
        "actions": {
            "value": "1"
        },
        "description": {
            "chat": "",
            "unidentified": "",
            "value": "<p><strong>Requirements</strong> You are in @Compendium[pf2e.feats-srd.Mountain Stance]{Mountain Stance}</p>\n<hr />\n<p>You focus on your connection to the earth and call upon the mountain to block attacks against you. You gain a +2 circumstance bonus to AC until the beginning of your next turn.</p>\n<hr />\n<p><strong>Special</strong> If you have this feat, the Dexterity modifier cap to your AC while you're in @Compendium[pf2e.feats-srd.Mountain Stance]{Mountain Stance} increases from +0 to +1.</p>\n<p>@Compendium[pf2e.pf2e-macros.Toggle Mountain Stance]{Toggle Mountain Stance}</p>"
        },
        "featType": {
            "value": "class"
        },
        "level": {
            "value": 6
        },
        "location": "",
        "prerequisites": {
            "value": [
                {
                    "value": "Mountain Stance"
                }
            ]
        },
        "rules": [],
        "source": {
            "value": ""
        },
        "traits": {
            "custom": "",
            "rarity": {
                "value": "common"
            },
            "value": [
                "monk"
            ]
        }
    },
    "effects": [],
    "flags": {},
    "img": "systems/pf2e/icons/features/feats/feats.jpg",
    "name": "Mountain Stronghold",
    "permission": {
        "default": 0
    },
    "type": "feat"
}
