{
    "_id": "0lieFKdwgNVXep7u",
    "data": {
        "actionCategory": {
            "value": ""
        },
        "actionType": {
            "value": "passive"
        },
        "actions": {
            "value": ""
        },
        "description": {
            "chat": "",
            "unidentified": "",
            "value": "<p>(Alchemist) Repeated exposure to toxic reagents has fortified your body against poisons of all kinds.</p>\n<p>(Druid) Your affinity for the natural world grants you protection against some of its dangers.</p>\n<hr />\n<p>You gain poison resistance equal to half your level, and you gain a +1 status bonus to saving throws against poisons.</p>"
        },
        "featType": {
            "value": "class"
        },
        "level": {
            "value": 2
        },
        "location": "",
        "prerequisites": {
            "value": []
        },
        "rules": [
            {
                "key": "PF2E.RuleElement.FlatModifier",
                "label": "Poison Resistance (vs. poisons)",
                "predicate": {
                    "all": [
                        "poison"
                    ]
                },
                "selector": "saving-throw",
                "type": "status",
                "value": 1
            }
        ],
        "source": {
            "value": ""
        },
        "traits": {
            "custom": "",
            "rarity": {
                "value": "common"
            },
            "value": [
                "alchemist",
                "druid"
            ]
        }
    },
    "effects": [],
    "flags": {},
    "img": "systems/pf2e/icons/features/feats/feats.jpg",
    "name": "Poison Resistance",
    "permission": {
        "default": 0
    },
    "type": "feat"
}
