{
    "_id": "VJ3wIsfmabK02SNg",
    "data": {
        "actionCategory": {
            "value": ""
        },
        "actionType": {
            "value": "passive"
        },
        "actions": {
            "value": ""
        },
        "description": {
            "chat": "",
            "unidentified": "",
            "value": "<p><strong>Access</strong> Successfully defeat the eberarks in the Irorium.<br /></p>\n<hr />\n<p>For you, fighting is as much about style as skill. You become trained in simple weapons, martial weapons, and one advanced weapon of your choice. When you critically succeed at an attack roll using your chosen advanced weapon, you also apply the critical specialization of that weapon. You become an expert in Performance and your choice of either Acrobatics or Athletics. If you were an expert in all three of these skills, you instead become an expert in a skill of your choice.<br /><br /><strong>Special</strong> You can't select another dedication feat until you have gained two other feats from the provocator archetype.</p>"
        },
        "featType": {
            "value": "archetype"
        },
        "level": {
            "value": 10
        },
        "prerequisites": {
            "value": [
                {
                    "value": "Strength 14"
                },
                {
                    "value": "Charisma 14"
                }
            ]
        },
        "rules": [],
        "source": {
            "value": ""
        },
        "traits": {
            "custom": "",
            "rarity": {
                "value": "uncommon"
            },
            "value": [
                "archetype",
                "dedication"
            ]
        }
    },
    "effects": [],
    "flags": {},
    "img": "systems/pf2e/icons/features/feats/feats.jpg",
    "name": "Provocator Dedication",
    "permission": {
        "default": 0
    },
    "type": "feat"
}
