{
    "_id": "BS6UoGLyJ12xVD9P",
    "data": {
        "actionCategory": {
            "value": ""
        },
        "actionType": {
            "value": "passive"
        },
        "actions": {
            "value": ""
        },
        "description": {
            "chat": "",
            "unidentified": "",
            "value": "<p>You call upon the familial bonds you share with other ysoki to defend them in battle. You can cast @Compendium[pf2e.spells-srd.Enlarge]{Enlarge} as a 6th-level primal innate spell once per day. You can target only yourself and other ratfolk with this spell.</p>"
        },
        "featType": {
            "value": "ancestry"
        },
        "level": {
            "value": 17
        },
        "location": "",
        "prerequisites": {
            "value": []
        },
        "rules": [],
        "source": {
            "value": ""
        },
        "traits": {
            "custom": "",
            "rarity": {
                "value": "common"
            },
            "value": [
                "ratfolk"
            ]
        },
        "usage": {
            "value": ""
        }
    },
    "effects": [],
    "flags": {},
    "img": "systems/pf2e/icons/features/feats/feats.jpg",
    "name": "Ratfolk Growth",
    "permission": {
        "default": 0
    },
    "type": "feat"
}
