{
    "_id": "5vRXZcGAbqKRoaqL",
    "data": {
        "actionCategory": {
            "value": ""
        },
        "actionType": {
            "value": "free"
        },
        "actions": {
            "value": ""
        },
        "description": {
            "chat": "",
            "unidentified": "",
            "value": "<p><strong>Requirements</strong> You have master proficiency in a skill to identify the triggering creature.</p>\n<p><strong>Trigger</strong> Your first turn of an encounter begins, and you can see a creature.</p>\n<hr />\n<p>You quickly assess the threat so you can relay the information to your team. Attempt a Recall Knowledge check against the triggering creature.</p>"
        },
        "featType": {
            "value": "archetype"
        },
        "level": {
            "value": 8
        },
        "prerequisites": {
            "value": [
                {
                    "value": "master in a Recall Knowledge skill"
                },
                {
                    "value": "Pathfinder Agent Dedication"
                }
            ]
        },
        "rules": [],
        "source": {
            "value": ""
        },
        "traits": {
            "custom": "",
            "rarity": {
                "value": "uncommon"
            },
            "value": [
                "skill",
                "archetype"
            ]
        }
    },
    "effects": [],
    "flags": {},
    "img": "systems/pf2e/icons/features/feats/feats.jpg",
    "name": "Recognize Threat",
    "permission": {
        "default": 0
    },
    "type": "feat"
}
