{
    "_id": "YhclkX1nfyUU8RtO",
    "data": {
        "actionCategory": {
            "value": ""
        },
        "actionType": {
            "value": "action"
        },
        "actions": {
            "value": "1"
        },
        "description": {
            "chat": "",
            "unidentified": "",
            "value": "<p><strong>Frequency</strong> once per day</p>\n<hr />\n<p>During your training to become a Pathfinder Agent you were schooled on a wide variety of creatures you might encounter, and you can think back to that training to gain crucial insight in times of need. Attempt a check to Recall Knowledge about a creature you can see, adding your level as a proficiency bonus if you are untrained (rather than 0). If you roll a failure (but not a critical failure) on this check, you get a success instead.</p>"
        },
        "featType": {
            "value": "archetype"
        },
        "level": {
            "value": "4"
        },
        "prerequisites": {
            "value": [
                {
                    "value": "Pathfinder Agent Dedication"
                }
            ]
        },
        "rules": [],
        "source": {
            "value": ""
        },
        "traits": {
            "custom": "",
            "rarity": {
                "value": "common"
            },
            "value": [
                "archetype"
            ]
        }
    },
    "effects": [],
    "flags": {},
    "img": "systems/pf2e/icons/features/feats/feats.jpg",
    "name": "Remember Your Training",
    "permission": {
        "default": 0
    },
    "type": "feat"
}
