{
    "_id": "FqZKSSBU7M4zhsXM",
    "data": {
        "actionCategory": {
            "value": ""
        },
        "actionType": {
            "value": "passive"
        },
        "actions": {
            "value": ""
        },
        "description": {
            "chat": "",
            "unidentified": "",
            "value": "<p>Your duskwalker heritage allows you to extend protection against negative energy to yourself or an ally in need. You gain resistance 5 to negative energy, and once per day, you can cast @Compendium[pf2e.spells-srd.Death Ward]{Death Ward} as a divine innate spell.</p>"
        },
        "featType": {
            "value": "ancestry"
        },
        "level": {
            "value": "13"
        },
        "prerequisites": {
            "value": []
        },
        "rules": [],
        "source": {
            "value": ""
        },
        "traits": {
            "custom": "",
            "rarity": {
                "value": "common"
            },
            "value": [
                "duskwalker"
            ]
        }
    },
    "effects": [],
    "flags": {},
    "img": "systems/pf2e/icons/features/feats/feats.jpg",
    "name": "Resist Ruin",
    "permission": {
        "default": 0
    },
    "type": "feat"
}
