{
    "_id": "Xwk41o4fERfM07NR",
    "data": {
        "actionCategory": {
            "value": ""
        },
        "actionType": {
            "value": "passive"
        },
        "actions": {
            "value": ""
        },
        "description": {
            "chat": "",
            "unidentified": "",
            "value": "<p>Ancestral spirits have begun to bond themselves to you, granting you powers characteristic of a rokoa. You can cast @Compendium[pf2e.spells-srd.Speak with Animals]{Speak with Animals} and @Compendium[pf2e.spells-srd.Status]{Status}<em> </em>as primal innate spells once per day each.</p>"
        },
        "featType": {
            "value": "ancestry"
        },
        "level": {
            "value": 9
        },
        "location": "",
        "prerequisites": {
            "value": []
        },
        "rules": [],
        "source": {
            "value": ""
        },
        "traits": {
            "custom": "",
            "rarity": {
                "value": "common"
            },
            "value": [
                "strix"
            ]
        },
        "usage": {
            "value": ""
        }
    },
    "effects": [],
    "flags": {},
    "img": "systems/pf2e/icons/features/feats/feats.jpg",
    "name": "Rokoan Arts",
    "permission": {
        "default": 0
    },
    "type": "feat"
}
