{
    "_id": "iXhMlT5rlLngybxX",
    "data": {
        "actionCategory": {
            "value": ""
        },
        "actionType": {
            "value": "passive"
        },
        "actions": {
            "value": ""
        },
        "description": {
            "chat": "",
            "unidentified": "",
            "value": "<p>Your shadow magic bleeds into the space around you. Whenever you cast a spell with the darkness trait, a lingering aura of shadows reduces bright light within a 5-foot emanation around you to dim light until the end of your turn. Like in natural dim light, you can use these shadows to Hide, but the aura still makes your overall position obvious, so you can’t become @Compendium[pf2e.conditionitems.Undetected]{Undetected} through the use of these shadows alone.</p>"
        },
        "featType": {
            "value": "ancestry"
        },
        "level": {
            "value": 9
        },
        "location": "",
        "prerequisites": {
            "value": [
                {
                    "value": "ability to cast at least one spell with the darkness trait"
                }
            ]
        },
        "rules": [],
        "source": {
            "value": ""
        },
        "traits": {
            "custom": "",
            "rarity": {
                "value": "common"
            },
            "value": [
                "dhampir"
            ]
        },
        "usage": {
            "value": ""
        }
    },
    "effects": [],
    "flags": {},
    "img": "systems/pf2e/icons/features/feats/feats.jpg",
    "name": "Slip Into Shadow",
    "permission": {
        "default": 0
    },
    "type": "feat"
}
