{
    "_id": "eHjqNXgylSuvA887",
    "data": {
        "actionCategory": {
            "value": ""
        },
        "actionType": {
            "value": "passive"
        },
        "actions": {
            "value": ""
        },
        "description": {
            "chat": "",
            "unidentified": "",
            "value": "<p><strong>Access</strong> You are from Jalmeray.</p>\n<hr />\n<p>You have learned the martial arts techniques of your House of Perfection. You become trained in your choice of Acrobatics or Athletics and Warfare Lore; if you were already trained, you become an expert instead. You gain the @Compendium[pf2e.feats-srd.Ki Strike]{Ki Strike} monk class feat, which grants you the ki strike ki spell and a focus pool of 1 Focus Point that you can recover using the Refocus activity as a monk does. Your ki spells from Student of Perfection are occult spells.</p>\n<hr />\n<p><strong>Special</strong> You can't select another dedication feat until you have gained two other feats from the student of perfection archetype.</p>"
        },
        "featType": {
            "value": "archetype"
        },
        "level": {
            "value": 2
        },
        "prerequisites": {
            "value": [
                {
                    "value": "powerful fist or expert in unarmed attacks"
                },
                {
                    "value": "member of a House of Perfection"
                }
            ]
        },
        "rules": [],
        "source": {
            "value": ""
        },
        "traits": {
            "custom": "",
            "rarity": {
                "value": "uncommon"
            },
            "value": [
                "archetype",
                "dedication"
            ]
        }
    },
    "effects": [],
    "flags": {},
    "img": "systems/pf2e/icons/features/feats/feats.jpg",
    "name": "Student of Perfection Dedication",
    "permission": {
        "default": 0
    },
    "type": "feat"
}
