{
    "_id": "nqtO5dNnxT4nZDbB",
    "data": {
        "actionCategory": {
            "value": ""
        },
        "actionType": {
            "value": "passive"
        },
        "actions": {
            "value": ""
        },
        "description": {
            "value": "<p>By sinking gently beneath the waves, you obscure your presence and utilize the water as a barrier between you and land combatants. While you are submerged just below the water’s surface, you have cover from attacks made by creatures out of the water.</p>"
        },
        "featType": {
            "value": "ancestry"
        },
        "level": {
            "value": 1
        },
        "location": "",
        "prerequisites": {
            "value": []
        },
        "rules": [],
        "source": {
            "value": ""
        },
        "traits": {
            "custom": "",
            "rarity": {
                "value": "common"
            },
            "value": [
                "azarketi"
            ]
        }
    },
    "effects": [],
    "flags": {},
    "img": "systems/pf2e/icons/default-icons/feats.jpg",
    "name": "Surface Skimmer",
    "permission": {
        "default": 0
    },
    "type": "feat"
}
