{
    "_id": "rnEfO5eyRw7Fywzb",
    "data": {
        "actionCategory": {
            "value": ""
        },
        "actionType": {
            "value": "action"
        },
        "actions": {
            "value": "2"
        },
        "description": {
            "chat": "",
            "unidentified": "",
            "value": "<p>You excel at using your tail as a weapon to upend your foes. Attempt a single Athletics check to Trip up to two adjacent creatures. If you roll a success against a target, you get a critical success against that target instead.</p>"
        },
        "featType": {
            "value": "ancestry"
        },
        "level": {
            "value": 5
        },
        "prerequisites": {
            "value": [
                {
                    "value": "tailed goblin heritage"
                },
                {
                    "value": "Hard Tail"
                }
            ]
        },
        "rules": [],
        "source": {
            "value": ""
        },
        "traits": {
            "custom": "",
            "rarity": {
                "value": "common"
            },
            "value": [
                "goblin"
            ]
        }
    },
    "effects": [],
    "flags": {},
    "img": "systems/pf2e/icons/features/feats/feats.jpg",
    "name": "Tail Spin",
    "permission": {
        "default": 0
    },
    "type": "feat"
}
