{
    "_id": "dc8X2Mbtwq6kGp7F",
    "data": {
        "actionCategory": {
            "value": ""
        },
        "actionType": {
            "value": "passive"
        },
        "actions": {
            "value": ""
        },
        "description": {
            "chat": "",
            "unidentified": "",
            "value": "<p>When you critically succeed at the Demoralize action, if the target's level is lower than yours, the target is fleeing for 1 round.</p>"
        },
        "featType": {
            "value": "skill"
        },
        "level": {
            "value": 7
        },
        "location": "",
        "prerequisites": {
            "value": [
                {
                    "value": "master in Intimdiation"
                }
            ]
        },
        "rules": [
            {
                "key": "PF2E.RuleElement.Note",
                "predicate": {
                    "all": [
                        "action:demoralize"
                    ]
                },
                "selector": "intimidation",
                "text": "<p class='compact-text'><strong>{item|name}</strong> When you critically succeed at the Demoralize action, if the target's level is lower than yours, the target is fleeing for 1 round.</p>"
            }
        ],
        "source": {
            "value": ""
        },
        "traits": {
            "custom": "",
            "rarity": {
                "value": "common"
            },
            "value": [
                "general",
                "skill"
            ]
        }
    },
    "effects": [],
    "flags": {},
    "img": "systems/pf2e/icons/features/feats/feats.jpg",
    "name": "Terrified Retreat",
    "permission": {
        "default": 0
    },
    "type": "feat"
}
