{
    "_id": "8G0USrxM7d4B4EVI",
    "data": {
        "actionCategory": {
            "value": ""
        },
        "actionType": {
            "value": "passive"
        },
        "actions": {
            "value": ""
        },
        "description": {
            "chat": "",
            "unidentified": "",
            "value": "<p><strong>Major Boon</strong>: Gorum feeds you the zeal of his undying warriors, allowing you to draw upon your own life force to fight on and on without falling.</p>\n<p>Whenever you would be reduced to 0 Hit Points, you are instead healed to half your maximum Hit Points and become @Compendium[pf2e.conditionitems.Doomed]{Doomed} 1 (or increase your doomed condition by 1).</p>"
        },
        "featType": {
            "value": "deityboon"
        },
        "level": {
            "value": "0"
        },
        "prerequisites": {
            "value": []
        },
        "rules": [],
        "source": {
            "value": ""
        },
        "traits": {
            "custom": "",
            "rarity": {
                "value": "common"
            },
            "selected": {},
            "value": []
        }
    },
    "effects": [],
    "flags": {},
    "img": "systems/pf2e/icons/deity/Gorum.png",
    "name": "Gorum - Major Boon",
    "permission": {
        "default": 0
    },
    "type": "feat"
}
