{
    "_id": "qhVfbZCxZJS8NmB3",
    "data": {
        "actionCategory": {
            "value": ""
        },
        "actionType": {
            "value": "passive"
        },
        "actions": {
            "value": ""
        },
        "description": {
            "chat": "",
            "unidentified": "",
            "value": "<p>Irori challenges you to adapt to adversity in order to perfect yourself. You become weighed down as if under heavy weights, becoming @Compendium[pf2e.conditionitems.Clumsy]{Clumsy} 2 and @Compendium[pf2e.conditionitems.Encumbered]{Encumbered} until you accomplish a challenging task of Irori's choosing.</p>"
        },
        "featType": {
            "value": "deityboon"
        },
        "level": {
            "value": "0"
        },
        "prerequisites": {
            "value": []
        },
        "rules": [],
        "source": {
            "value": ""
        },
        "traits": {
            "custom": "",
            "rarity": {
                "value": "common"
            },
            "selected": {},
            "value": []
        }
    },
    "effects": [],
    "flags": {},
    "img": "systems/pf2e/icons/deity/Irori.png",
    "name": "Irori - Moderate Curse",
    "permission": {
        "default": 0
    },
    "type": "feat"
}
