{
    "_id": "d198p8UBPK3VcKi9",
    "data": {
        "actionCategory": {
            "value": ""
        },
        "actionType": {
            "value": "passive"
        },
        "actions": {
            "value": ""
        },
        "description": {
            "chat": "",
            "unidentified": "",
            "value": "<p><strong>Moderate Curse</strong>: Your destructive rage seeks to remain unbound.</p>\n<p>Any armor you wear automatically becomes @Compendium[pf2e.conditionitems.Broken]{Broken}. Other items in your possession occasionally become @Compendium[pf2e.conditionitems.Broken]{Broken} over time.</p>"
        },
        "featType": {
            "value": "curse"
        },
        "level": {
            "value": "0"
        },
        "prerequisites": {
            "value": []
        },
        "rules": [],
        "source": {
            "value": ""
        },
        "traits": {
            "custom": "",
            "rarity": {
                "value": "common"
            },
            "selected": {},
            "value": []
        }
    },
    "effects": [],
    "flags": {},
    "img": "systems/pf2e/icons/deity/Rovagug.png",
    "name": "Rovagug - Moderate Curse",
    "permission": {
        "default": 0
    },
    "type": "feat"
}
