{
    "_id": "1nALC8yWtjBDEaOC",
    "data": {
        "actionCategory": {
            "value": ""
        },
        "actionType": {
            "value": "passive"
        },
        "actions": {
            "value": ""
        },
        "description": {
            "chat": "",
            "unidentified": "",
            "value": "<p><strong>Minor Curse</strong>: Whenever you are imprisoned, you thrash and shake as your mind fills with desperation.</p>\n<p>Any time you are restrained or otherwise imprisoned (such as being sent to jail), you are also @Compendium[pf2e.conditionitems.Clumsy]{Clumsy} 2 and @Compendium[pf2e.conditionitems.Stupefied]{Stupefied} 2.</p>"
        },
        "featType": {
            "value": "curse"
        },
        "level": {
            "value": "0"
        },
        "prerequisites": {
            "value": []
        },
        "rules": [],
        "source": {
            "value": ""
        },
        "traits": {
            "custom": "",
            "rarity": {
                "value": "common"
            },
            "selected": {},
            "value": []
        }
    },
    "effects": [],
    "flags": {},
    "img": "systems/pf2e/icons/deity/Rovagug.png",
    "name": "Rovagug - Minor Curse",
    "permission": {
        "default": 0
    },
    "type": "feat"
}
