{
    "_id": "zoJjzir97Ie7tbp0",
    "data": {
        "actionCategory": {
            "value": ""
        },
        "actionType": {
            "value": "passive"
        },
        "actions": {
            "value": ""
        },
        "description": {
            "chat": "",
            "unidentified": "",
            "value": "<p><strong>Moderate Boon</strong>: You are inspired to create great works and become a virtuoso at all arts. You gain the Specialty Crafting feat and the @Compendium[pf2e.feats-srd.Virtuosic Performer]{Virtuosic Performer} feat in all categories of Crafting and Performance.</p>\n<hr />\n<ul>\n<li>@Compendium[pf2e.feats-srd.Specialty Crafting (Alchemy)]{Specialty Crafting (Alchemy)}</li>\n<li>@Compendium[pf2e.feats-srd.Specialty Crafting (Artistry)]{Specialty Crafting (Artistry)}</li>\n<li>@Compendium[pf2e.feats-srd.Specialty Crafting (Blacksmithing)]{Specialty Crafting (Blacksmithing)}</li>\n<li>@Compendium[pf2e.feats-srd.Specialty Crafting (Bookmaking)]{Specialty Crafting (Bookmaking)}</li>\n<li>@Compendium[pf2e.feats-srd.Specialty Crafting (Glassmaking)]{Specialty Crafting (Glassmaking)}</li>\n<li>@Compendium[pf2e.feats-srd.Specialty Crafting (Leatherworking)]{Specialty Crafting (Leatherworking)}</li>\n<li>@Compendium[pf2e.feats-srd.Specialty Crafting (Pottery)]{Specialty Crafting (Pottery)}</li>\n<li>@Compendium[pf2e.feats-srd.Specialty Crafting (Shipbuilding)]{Specialty Crafting (Shipbuilding)}</li>\n<li>@Compendium[pf2e.feats-srd.Specialty Crafting (Stonemasonry)]{Specialty Crafting (Stonemasonry)}</li>\n<li>@Compendium[pf2e.feats-srd.Specialty Crafting (Tailoring)]{Specialty Crafting (Tailoring)}</li>\n<li>@Compendium[pf2e.feats-srd.Specialty Crafting (Weaving)]{Specialty Crafting (Weaving)}</li>\n<li>@Compendium[pf2e.feats-srd.Specialty Crafting (Woodworking)]{Specialty Crafting (Woodworking)}</li>\n</ul>"
        },
        "featType": {
            "value": "deityboon"
        },
        "level": {
            "value": 0
        },
        "prerequisites": {
            "value": []
        },
        "rules": [],
        "source": {
            "value": ""
        },
        "traits": {
            "custom": "",
            "rarity": {
                "value": "common"
            },
            "selected": {},
            "value": []
        }
    },
    "effects": [],
    "flags": {},
    "img": "systems/pf2e/icons/deity/Shelyn.png",
    "name": "Shelyn - Moderate Boon",
    "permission": {
        "default": 0
    },
    "type": "feat"
}
