{
    "_id": "xgZxYqjDPNtsQ3Qp",
    "data": {
        "description": {
            "chat": "",
            "unidentified": "",
            "value": "<p>Granted by @Compendium[pf2e.spells-srd.Aerial Form]{Aerial Form}.</p>\n<p>You harness your mastery of primal forces to reshape your body into a Medium flying animal battle form. You can decide the specific type of animal (such as an owl or eagle for bird), but this has no effect on the form's Size or statistics. While in this form, you gain the animal trait. You can Dismiss the spell.</p>\n<p>You gain the following statistics and abilities regardless of which battle form you choose:</p>\n<ul>\n<li>AC = 18 + your level. Ignore your armor's check penalty and Speed reduction.</li>\n<li>5 temporary Hit Points.</li>\n<li>Low-light vision.</li>\n<li>One or more unarmed melee attacks specific to the battle form you choose, which are the only attacks you can use. You're trained with them. Your attack modifier is +16, and your damage bonus is +5. These attacks are Dexterity based (for the purpose of the @Compendium[pf2e.conditionitems.Clumsy]{Clumsy} condition, for example). If your attack modifier for Dexterity-based unarmed attacks is higher, you can use it instead.</li>\n<li>Acrobatics modifier of +16, unless your own modifier is higher.</li>\n</ul>\n<p>You also gain specific abilities based on the form you choose:</p>\n<ul>\n<li><strong>Wasp</strong>\n<ul>\n<li>Speed 20 feet, fly Speed 40 feet;</li>\n<li><strong>Melee</strong> <span class=\"pf2-icon\">1</span> stinger, <strong>Damage</strong> 1d8 piercing plus 1d6 persistent poison.</li>\n</ul>\n</li>\n</ul>\n<hr />\n<p><strong>Heightened (5th)</strong> Your battle form is Large and your fly Speed gains a +10-foot status bonus. You must have enough space to expand into or the spell is lost. You instead gain 10 temporary HP, attack modifier +18, damage bonus +8, and Acrobatics +20.</p>\n<p><strong>Heightened (6th)</strong> Your battle form is Huge, your fly Speed gains a +15-foot status bonus, and your attacks have 10-foot reach. You must have enough space to expand into or the spell is lost. You instead gain AC = 21 + your level, 15 temporary HP, attack modifier +21, damage bonus +4 and double damage dice (including @Compendium[pf2e.conditionitems.Persistent Damage]{Persistent Damage}), and Acrobatics +23.</p>\n<hr />\n<p><em>Note: To heighten this effect, import it into your Item Directory and edit the level before adding it to the target</em></p>"
        },
        "duration": {
            "expiry": "turn-start",
            "sustained": false,
            "unit": "minutes",
            "value": 1
        },
        "level": {
            "value": 4
        },
        "rules": [
            {
                "key": "PF2E.RuleElement.FixedProficiency",
                "label": "Aerial Form",
                "roll-options": [
                    "ac",
                    "all"
                ],
                "selector": "ac",
                "type": "polymorph",
                "value": {
                    "brackets": [
                        {
                            "end": 5,
                            "start": 4,
                            "value": "18 + @details.level.value"
                        },
                        {
                            "start": 6,
                            "value": "21 + @details.level.value"
                        }
                    ],
                    "field": "item|data.level.value"
                }
            },
            {
                "key": "PF2E.RuleElement.TempHP",
                "label": " Form",
                "value": {
                    "brackets": [
                        {
                            "end": 4,
                            "start": 4,
                            "value": 5
                        },
                        {
                            "end": 5,
                            "start": 5,
                            "value": 10
                        },
                        {
                            "start": 6,
                            "value": 15
                        }
                    ],
                    "field": "item|data.level.value"
                }
            },
            {
                "key": "PF2E.RuleElement.Sense",
                "label": "PF2E.SensesLowLightVision",
                "selector": "lowlightvision"
            },
            {
                "ability": "dex",
                "key": "PF2E.RuleElement.FixedProficiency",
                "label": "Aerial Form",
                "selector": "attack",
                "value": {
                    "brackets": [
                        {
                            "end": 4,
                            "start": 4,
                            "value": 16
                        },
                        {
                            "end": 5,
                            "start": 5,
                            "value": 18
                        },
                        {
                            "start": 6,
                            "value": 21
                        }
                    ],
                    "field": "item|data.level.value"
                }
            },
            {
                "ability": "dex",
                "key": "PF2E.RuleElement.FixedProficiency",
                "label": "Aerial Form",
                "roll-options": [
                    "all"
                ],
                "selector": "damage",
                "value": {
                    "brackets": [
                        {
                            "end": 4,
                            "start": 4,
                            "value": 5
                        },
                        {
                            "end": 5,
                            "start": 5,
                            "value": 8
                        },
                        {
                            "start": 6,
                            "value": 4
                        }
                    ],
                    "field": "item|data.level.value"
                }
            },
            {
                "key": "PF2E.RuleElement.FixedProficiency",
                "label": "Aerial Form",
                "roll-options": [
                    "all"
                ],
                "selector": "acrobatics",
                "value": {
                    "brackets": [
                        {
                            "end": 4,
                            "start": 4,
                            "value": 16
                        },
                        {
                            "end": 5,
                            "start": 5,
                            "value": 20
                        },
                        {
                            "start": 6,
                            "value": 23
                        }
                    ],
                    "field": "item|data.level.value"
                }
            },
            {
                "key": "PF2E.RuleElement.TokenSize",
                "value": {
                    "brackets": [
                        {
                            "end": 4,
                            "start": 4,
                            "value": 1
                        },
                        {
                            "end": 5,
                            "start": 5,
                            "value": 2
                        },
                        {
                            "start": 6,
                            "value": 3
                        }
                    ],
                    "field": "item|data.level.value"
                }
            },
            {
                "key": "PF2E.RuleElement.BaseSpeed",
                "selector": "land-speed",
                "value": 20
            },
            {
                "key": "PF2E.RuleElement.BaseSpeed",
                "selector": "fly",
                "value": 40
            },
            {
                "key": "PF2E.RuleElement.FlatModifer",
                "selector": "fly-speed",
                "type": "status",
                "value": {
                    "brackets": [
                        {
                            "start": 6,
                            "value": 15
                        }
                    ],
                    "field": "item|data.level.value"
                }
            },
            {
                "category": "unarmed",
                "damage": {
                    "base": {
                        "damageType": "piercing",
                        "dice": 1,
                        "die": "d8"
                    }
                },
                "group": "brawling",
                "key": "PF2E.RuleElement.Strike",
                "label": "Wasp Stinger",
                "range": "melee",
                "traits": [
                    "melee"
                ]
            },
            {
                "key": "PF2E.RuleElement.Note",
                "selector": "damage",
                "text": "<p class='compact-text'><strong>Add 1d6 persistent poison (Heightened 6th, Add 2d6 persistent poison)</p>"
            },
            {
                "critical": false,
                "key": "PF2E.RuleElement.DamageDice",
                "label": "Aerial Form",
                "selector": "damage",
                "value": {
                    "brackets": [
                        {
                            "start": 6,
                            "value": {
                                "diceNumber": 1
                            }
                        }
                    ],
                    "field": "item|data.level.value"
                }
            },
            {
                "key": "PF2E.RuleElement.TokenEffectIcon"
            },
            {
                "key": "PF2E.RuleElement.SetProperty",
                "on": {
                    "added": true,
                    "removed": false
                },
                "property": "flags.pf2e.rollOptions.all.polymorph",
                "retain": true
            }
        ],
        "source": {
            "value": ""
        },
        "start": {
            "initiative": null,
            "value": 0
        },
        "target": null,
        "traits": {
            "custom": "",
            "rarity": {
                "value": "common"
            },
            "value": []
        }
    },
    "effects": [],
    "flags": {},
    "img": "systems/pf2e/icons/spells/aerial-form.jpg",
    "name": "Spell Effect: Aerial Form (Wasp)",
    "permission": {
        "default": 0
    },
    "type": "effect"
}
