{
    "_id": "B7RMnrHwQHlezlJT",
    "data": {
        "actionCategory": {
            "value": ""
        },
        "actionType": {
            "value": "passive"
        },
        "actions": {
            "value": ""
        },
        "description": {
            "chat": "",
            "unidentified": "",
            "value": "<p>You reposition, maneuver, and bewilder your foes with daring feats of physical prowess. You are trained in Athletics. You gain @Compendium[pf2e.classfeatures.Panache]{Panache} during an encounter whenever you successfully @Compendium[pf2e.actionspf2e.Grapple]{Grapple}, @Compendium[pf2e.actionspf2e.Shove]{Shove}, or @Compendium[pf2e.actionspf2e.Trip]{Trip} a foe.</p>"
        },
        "featType": {
            "value": "classfeature"
        },
        "level": {
            "value": 1
        },
        "location": "",
        "prerequisites": {
            "value": []
        },
        "rules": [
            {
                "key": "PF2E.RuleElement.FlatModifier",
                "predicate": {
                    "all": [
                        "panache"
                    ],
                    "any": [
                        "action:grapple",
                        "action:shove",
                        "action:trip"
                    ]
                },
                "selector": "athletics",
                "type": "circumstance",
                "value": 1
            }
        ],
        "source": {
            "value": ""
        },
        "traits": {
            "custom": "",
            "rarity": {
                "value": "common"
            },
            "value": [
                "swashbuckler"
            ]
        }
    },
    "effects": [
        {
            "_id": "jN2zsW3Digzr7WDx",
            "changes": [
                {
                    "key": "data.skills.ath.rank",
                    "mode": 4,
                    "value": 1
                }
            ],
            "disabled": false,
            "duration": {
                "rounds": null,
                "seconds": null,
                "startRound": null,
                "startTime": null,
                "startTurn": null,
                "turns": null
            },
            "flags": {},
            "icon": "systems/pf2e/icons/features/classes/gymnast-style.jpg",
            "label": "Gymnast Style",
            "origin": "",
            "tint": "",
            "transfer": true
        }
    ],
    "flags": {},
    "img": "systems/pf2e/icons/features/classes/gymnast-style.jpg",
    "name": "Gymnast Style",
    "permission": {
        "default": 0
    },
    "type": "feat"
}
