{
    "_id": "LlZ5R50z9j8jysZL",
    "data": {
        "actionCategory": {
            "value": ""
        },
        "actionType": {
            "value": "passive"
        },
        "actions": {
            "value": ""
        },
        "description": {
            "chat": "",
            "unidentified": "",
            "value": "<p><span style=\"color: #191813; font-family: Roboto, system, -apple-system, sans-serif; font-size: 13px;\">You have learned how to create perpetual alchemical infusions that can provide a near-infinite supply of certain simple items. You gain the ability to create two 1st-level alchemical items using Quick Alchemy without spending a batch of infused reagents. The items you can select depend on your research field and must be in your formula book.</span></p>\n<hr />\n<p><span style=\"color: #191813; font-family: Roboto, system, -apple-system, sans-serif; font-size: 13px;\">Choose two common 1st-level alchemical poisons.</span></p>"
        },
        "featType": {
            "value": "classfeature"
        },
        "level": {
            "value": 7
        },
        "prerequisites": {
            "value": []
        },
        "rules": [],
        "source": {
            "value": ""
        },
        "traits": {
            "custom": "",
            "rarity": {
                "value": "common"
            },
            "value": [
                "alchemist"
            ]
        }
    },
    "effects": [],
    "flags": {},
    "img": "systems/pf2e/icons/features/classes/perpetual-infusions-chirurgeon.jpg",
    "name": "Perpetual Infusions (Toxicologist)",
    "permission": {
        "default": 0
    },
    "type": "feat"
}
