{
    "_id": "dARE6VfJ3Uoq5M53",
    "data": {
        "ability": {
            "value": ""
        },
        "area": {
            "value": ""
        },
        "areasize": {
            "value": ""
        },
        "components": {
            "value": "somatic, verbal"
        },
        "cost": {
            "value": ""
        },
        "damage": {
            "applyMod": false,
            "value": ""
        },
        "damageType": {
            "value": ""
        },
        "description": {
            "value": "<p>You impose a curse upon the target that renders it easily distracted and unable to focus its thoughts on tasks that demand insight or discernment. The target must attempt a Will save.</p>\n<hr />\n<p><strong>Critical Success</strong> The target is unaffected.</p>\n<p><strong>Success</strong> For 10 minutes, the target must roll twice and use the worse result whenever attempting a Medicine, Nature, Perception, or Survival check. If the target critically succeeds at a Perception check or skill check to perform an action with the concentrate trait, the target gets a success instead.</p>\n<p><strong>Failure</strong> As success, but the effect is permanent.</p>\n<p><strong>Critical Failure</strong> As failure, except the target treats the outcomes of all checks with the concentrate trait as one degree of success worse than the result it rolled (a critical success becomes a success, a success becomes a failure, and a failure becomes a critical failure).</p>"
        },
        "duration": {
            "value": "varies"
        },
        "hasCounteractCheck": {
            "value": false
        },
        "level": {
            "value": 4
        },
        "location": {
            "value": "oFe7lxzQEGfUfG9l"
        },
        "materials": {
            "value": ""
        },
        "prepared": {
            "value": ""
        },
        "primarycheck": {
            "value": ""
        },
        "range": {
            "value": "touch"
        },
        "rules": [],
        "save": {
            "basic": "basic",
            "value": "will"
        },
        "scaling": {
            "formula": "",
            "mode": "none"
        },
        "school": {
            "value": "enc"
        },
        "secondarycasters": {
            "value": ""
        },
        "secondarycheck": {
            "value": ""
        },
        "source": {
            "value": ""
        },
        "spellCategorie": {
            "value": "spell"
        },
        "spellCategory": {
            "value": ""
        },
        "spellType": {
            "value": "save"
        },
        "sustained": {
            "value": false
        },
        "target": {
            "value": "1 creature"
        },
        "time": {
            "value": "2"
        },
        "traditions": {
            "custom": "",
            "value": [
                "arcane",
                "occult"
            ]
        },
        "traits": {
            "custom": "",
            "rarity": {
                "value": "uncommon"
            },
            "value": [
                "attack",
                "curse",
                "enchantment",
                "mental",
                "misfortune"
            ]
        }
    },
    "effects": [],
    "flags": {},
    "img": "systems/pf2e/icons/spells/daydreamers-curse.jpg",
    "name": "Daydreamer's Curse",
    "permission": {
        "default": 0
    },
    "type": "spell"
}
