{
    "_id": "K1wmI4qPmRhFczmy",
    "data": {
        "ability": {
            "value": ""
        },
        "area": {
            "areaType": "burst",
            "value": 20
        },
        "areasize": {
            "value": "20-foot-radius burst"
        },
        "components": {
            "value": "somatic, verbal"
        },
        "cost": {
            "value": ""
        },
        "damage": {
            "applyMod": false,
            "value": "1d6"
        },
        "damageType": {
            "value": "slashing"
        },
        "description": {
            "chat": "",
            "unidentified": "",
            "value": "<p><span>You call forth a swirling storm of dust. The <em>dust storm</em> obscures vision, with the effect of @Compendium[pf2e.spells-srd.Obscuring Mist]{Obscuring Mist}. The dust also makes the air unbreathable; creatures in the area must hold their breath, though wearing a scarf or similar clothing over the mouth increases the time the creature can hold its breath to 5 rounds. Creatures entering or starting their turn in the <em>dust storm</em> take 1d6 slashing damage. Creatures that have the water trait or that are made primarily of liquid take double damage.</span></p>\n<hr />\n<p><strong>Heightened (+2)</strong> The damage increases by 1d6.</p>"
        },
        "duration": {
            "value": "1 minute"
        },
        "hasCounteractCheck": {
            "value": false
        },
        "level": {
            "value": 4
        },
        "location": {
            "value": ""
        },
        "materials": {
            "value": ""
        },
        "prepared": {
            "value": ""
        },
        "primarycheck": {
            "value": ""
        },
        "range": {
            "value": "120 feet"
        },
        "rules": [],
        "save": {
            "basic": "",
            "value": ""
        },
        "scaling": {
            "formula": "1d6",
            "mode": "level2"
        },
        "school": {
            "value": "con"
        },
        "secondarycasters": {
            "value": ""
        },
        "secondarycheck": {
            "value": ""
        },
        "source": {
            "value": ""
        },
        "spellCategorie": {
            "value": "focus"
        },
        "spellCategory": {
            "value": ""
        },
        "spellType": {
            "value": "utility"
        },
        "sustained": {
            "value": false
        },
        "target": {
            "value": ""
        },
        "time": {
            "value": "2"
        },
        "traditions": {
            "custom": "",
            "value": [
                "focus"
            ]
        },
        "traits": {
            "custom": "",
            "rarity": {
                "value": "uncommon"
            },
            "value": [
                "cleric",
                "conjuration",
                "nonlethal"
            ]
        }
    },
    "effects": [],
    "flags": {},
    "img": "systems/pf2e/icons/spells/dust-storm.jpg",
    "name": "Dust Storm",
    "permission": {
        "default": 0
    },
    "type": "spell"
}
