{
    "_id": "u0AtDZs6BhBPtjEs",
    "data": {
        "ability": {
            "value": ""
        },
        "area": {
            "areaType": "",
            "value": null
        },
        "areasize": {
            "value": ""
        },
        "components": {
            "value": "somatic, verbal"
        },
        "cost": {
            "value": ""
        },
        "damage": {
            "applyMod": false,
            "value": ""
        },
        "damageType": {
            "value": ""
        },
        "description": {
            "chat": "",
            "unidentified": "",
            "value": "<p><span>Members of the Lacunafex and other allies use this spell to restore material that Thrune agents have redacted from historical or otherwise valuable texts. You learn one piece of information that was removed from the target text after its creation. You can instead learn one piece of information from a text that had been destroyed, but you must have a fragment of the text, such as a piece of the cover, a page, or even a clasp or metal fittings.</span></p>\n<hr />\n<p><strong>Heightened (6th)</strong> The spell reconstructs all missing information regarding a specific topic of your choice.</p>\n<p><strong>Heightened (9th)</strong> The spell also reveals information the writer self-censored and didn't commit to paper.</p>"
        },
        "duration": {
            "value": "varies"
        },
        "hasCounteractCheck": {
            "value": false
        },
        "level": {
            "value": 4
        },
        "location": {
            "value": ""
        },
        "materials": {
            "value": ""
        },
        "prepared": {
            "value": ""
        },
        "primarycheck": {
            "value": ""
        },
        "range": {
            "value": "touch"
        },
        "rules": [],
        "save": {
            "basic": "",
            "value": ""
        },
        "scaling": {
            "formula": "",
            "mode": "none"
        },
        "school": {
            "value": "div"
        },
        "secondarycasters": {
            "value": ""
        },
        "secondarycheck": {
            "value": ""
        },
        "source": {
            "value": ""
        },
        "spellCategorie": {
            "value": "spell"
        },
        "spellCategory": {
            "value": ""
        },
        "spellType": {
            "value": "utility"
        },
        "sustained": {
            "value": false
        },
        "target": {
            "value": "1 text or remnants thereof"
        },
        "time": {
            "value": "2"
        },
        "traditions": {
            "custom": "",
            "value": [
                "arcane",
                "divine",
                "occult"
            ]
        },
        "traits": {
            "custom": "",
            "rarity": {
                "value": "rare"
            },
            "value": [
                "divination"
            ]
        }
    },
    "effects": [],
    "flags": {},
    "img": "systems/pf2e/icons/spells/forgotten-lines.jpg",
    "name": "Forgotten Lines",
    "permission": {
        "default": 0
    },
    "type": "spell"
}
