{
    "_id": "pHrVvoTKygXeczVG",
    "data": {
        "ability": {
            "value": ""
        },
        "area": {
            "value": ""
        },
        "areasize": {
            "value": ""
        },
        "components": {
            "value": "somatic, verbal"
        },
        "cost": {
            "value": ""
        },
        "damage": {
            "applyMod": false,
            "value": ""
        },
        "damageType": {
            "value": ""
        },
        "description": {
            "chat": "",
            "unidentified": "",
            "value": "<p>You grant an ally a token of favor. You create a token, such as a lock of your hair or a flower, that persists for the spell's duration; as part of @Compendium[pf2e.actionspf2e.Cast a Spell]{Casting the Spell}, you can @Compendium[pf2e.actionspf2e.Interact]{Interact} to pass the token to an ally within your reach. As long as the ally has the token on their person, they gain a +1 status bonus to Performance checks and Will saves. You can @Compendium[pf2e.actionspf2e.Dismiss]{Dismiss} the spell as a free action.</p>\n<hr />\n<p><strong>Heightened (4th)</strong> As long as the ally has the token on their person, you can cast spells that have a range of touch on them at a range of 30 feet.</p>"
        },
        "duration": {
            "value": "1 minute"
        },
        "hasCounteractCheck": {
            "value": false
        },
        "level": {
            "value": 1
        },
        "location": {
            "value": ""
        },
        "materials": {
            "value": ""
        },
        "prepared": {
            "value": ""
        },
        "primarycheck": {
            "value": ""
        },
        "range": {
            "value": ""
        },
        "rules": [],
        "save": {
            "basic": "",
            "value": ""
        },
        "scaling": {
            "formula": "",
            "mode": "none"
        },
        "school": {
            "value": "enc"
        },
        "secondarycasters": {
            "value": ""
        },
        "secondarycheck": {
            "value": ""
        },
        "source": {
            "value": ""
        },
        "spellCategorie": {
            "value": "focus"
        },
        "spellCategory": {
            "value": ""
        },
        "spellType": {
            "value": "utility"
        },
        "sustained": {
            "value": false
        },
        "target": {
            "value": ""
        },
        "time": {
            "value": "2"
        },
        "traditions": {
            "value": []
        },
        "traits": {
            "custom": "",
            "rarity": {
                "value": "uncommon"
            },
            "value": [
                "enchantment",
                "sorcerer"
            ]
        }
    },
    "effects": [],
    "flags": {},
    "img": "systems/pf2e/icons/spells/nymphs-token.jpg",
    "name": "Nymph's Token",
    "permission": {
        "default": 0
    },
    "type": "spell"
}
