{
    "_id": "eCniO6INHNfc9Svr",
    "data": {
        "ability": {
            "value": ""
        },
        "area": {
            "areaType": "emanation",
            "value": 15
        },
        "areasize": {
            "value": "15-foot emanation, centered on you"
        },
        "components": {
            "value": "somatic, verbal"
        },
        "cost": {
            "value": ""
        },
        "damage": {
            "applyMod": false,
            "value": ""
        },
        "damageType": {
            "value": ""
        },
        "description": {
            "chat": "",
            "unidentified": "",
            "value": "<p>Sadness flows out of you into nearby creatures, blotting out any other thoughts they had. The first time a creature begins its turn in the area or enters the area, it must attempt a Will save. If it later leaves and reenters the area, it uses the same effect as before.</p>\n<hr />\n<p><span><strong>Critical Success</strong> The creature is unaffected.</span></p>\n<p><span><strong>Success</strong> The creature takes a -1 status penalty to skill checks and Perception checks as long as it remains in the area.</span></p>\n<p><span><strong>Failure</strong> While the creature is in the area, any emotion effects of lower counteract level than <em>overflowing sorrow</em> are suppressed, and whenever the creature attempts to use an emotion action or cast an emotion spell, it must succeed at a DC 11 flat check or the action or spell is disrupted.</span></p>\n<p><span><strong>Critical Failure</strong> As failure, but the creature cannot use emotion actions or spells. </span></p>\n<hr />\n<p><strong>Heightened (+2)</strong> When you Cast the Spell, you can choose to increase the area by 5 feet.</p>"
        },
        "duration": {
            "value": "sustained up to 1 minute"
        },
        "hasCounteractCheck": {
            "value": false
        },
        "level": {
            "value": 4
        },
        "location": {
            "value": ""
        },
        "materials": {
            "value": ""
        },
        "prepared": {
            "value": ""
        },
        "primarycheck": {
            "value": ""
        },
        "range": {
            "value": ""
        },
        "rules": [],
        "save": {
            "basic": "",
            "value": "will"
        },
        "scaling": {
            "formula": "",
            "mode": "none"
        },
        "school": {
            "value": "enc"
        },
        "secondarycasters": {
            "value": ""
        },
        "secondarycheck": {
            "value": ""
        },
        "source": {
            "value": ""
        },
        "spellCategorie": {
            "value": "focus"
        },
        "spellCategory": {
            "value": ""
        },
        "spellType": {
            "value": "save"
        },
        "sustained": {
            "value": false
        },
        "target": {
            "value": ""
        },
        "time": {
            "value": "2"
        },
        "traditions": {
            "custom": "",
            "value": [
                "focus"
            ]
        },
        "traits": {
            "custom": "",
            "rarity": {
                "value": "uncommon"
            },
            "value": [
                "cleric",
                "emotion",
                "enchantment",
                "incapacitation",
                "mental"
            ]
        }
    },
    "effects": [],
    "flags": {},
    "img": "systems/pf2e/icons/spells/overflowing-sorrow.jpg",
    "name": "Overflowing Sorrow",
    "permission": {
        "default": 0
    },
    "type": "spell"
}
