{
    "_id": "TUbXnR4RAuYzRx1u",
    "data": {
        "ability": {
            "value": ""
        },
        "area": {
            "areaType": "",
            "value": null
        },
        "areasize": {
            "value": ""
        },
        "components": {
            "value": "material, somatic"
        },
        "cost": {
            "value": ""
        },
        "damage": {
            "applyMod": false,
            "value": ""
        },
        "damageType": {
            "value": ""
        },
        "description": {
            "chat": "",
            "unidentified": "",
            "value": "<p><span>You turn a fire into either a burst of blinding fireworks or a thick cloud of choking smoke, chosen when you Cast the Spell. The spell targets one fire source, which is immediately extinguished if it is a non-magical fire the size of a campfire or smaller. If the fire source is a creature, the creature takes 1d6 points of cold damage and is not extinguished. </span></p>\n<ul>\n<li><strong>Fireworks</strong> The targeted fire explodes into a colorful array of flashy, fiery, glowing aerial fireworks in a 20-foot-radius burst. The first time you Sustain the Spell each round, you can cause the area of fireworks to ascend up to 20 feet, but you cannot move the area laterally. Creatures that start their turn within the area of the fireworks must attempt a Fortitude save, and are then temporarily immune for 1 minute. <br /><strong>Critical Success</strong> The creature is unaffected<br /><strong>Success</strong> The creature is @Compendium[pf2e.conditionitems.Dazzled]{Dazzled} until the end of its next turn.<br /><strong>Failure</strong> The creature is @Compendium[pf2e.conditionitems.Blinded]{Blinded} until the end of its next turn.<br /><strong>Critical Failure</strong> The creature is Blinded for 1 minute.</li>\n<li><strong>Smoke Cloud</strong> Thick smoke billows out from the fire and coalesces into a cloud that spreads to fill a 20-foot-radius burst centered on the targeted fire. Creatures within the smoke cloud take a -4 circumstance penalty to visual Perception checks, and creatures outside the smoke cloud take a -4 circumstance penalty to visual Perception checks to detect creatures or objects within it. The first time you Sustain the Spell each round, you can cause the smoke cloud to descend up to 20 feet, but you cannot move the area laterally. Creatures that start their turn within the smoke cloud must attempt a Fortitude save, and are then temporarily immune for 1 minute. <br /><strong>Success</strong> The creature is unaffected.<br /><strong>Failure</strong> The creature is @Compendium[pf2e.conditionitems.Sickened]{Sickened 1}.<br /><strong>Critical Failure</strong> The creature is Sickened 1 and cannot recover from the sickened condition while in the area of the smoke cloud. </li>\n</ul>"
        },
        "duration": {
            "value": "sustained up to 1 minute"
        },
        "hasCounteractCheck": {
            "value": false
        },
        "level": {
            "value": 3
        },
        "location": {
            "value": ""
        },
        "materials": {
            "value": ""
        },
        "prepared": {
            "value": ""
        },
        "primarycheck": {
            "value": ""
        },
        "range": {
            "value": "120 feet"
        },
        "rules": [],
        "save": {
            "basic": "",
            "value": "fortitude"
        },
        "scaling": {
            "formula": "",
            "mode": "none"
        },
        "school": {
            "value": "trs"
        },
        "secondarycasters": {
            "value": ""
        },
        "secondarycheck": {
            "value": ""
        },
        "source": {
            "value": ""
        },
        "spellCategorie": {
            "value": "spell"
        },
        "spellCategory": {
            "value": ""
        },
        "spellType": {
            "value": "save"
        },
        "sustained": {
            "value": false
        },
        "target": {
            "value": "1 fire"
        },
        "time": {
            "value": "2"
        },
        "traditions": {
            "custom": "",
            "value": [
                "arcane",
                "occult"
            ]
        },
        "traits": {
            "custom": "",
            "rarity": {
                "value": "uncommon"
            },
            "value": [
                "fire",
                "transmutation"
            ]
        }
    },
    "effects": [],
    "flags": {},
    "img": "systems/pf2e/icons/spells/pyrotechnics.jpg",
    "name": "Pyrotechnics",
    "permission": {
        "default": 0
    },
    "type": "spell"
}
