{
    "_id": "9s5tqqXNzcoKamWx",
    "data": {
        "ability": {
            "value": ""
        },
        "area": {
            "areaType": "burst",
            "value": 10
        },
        "areasize": {
            "value": "10-foot burst"
        },
        "components": {
            "value": "material, somatic, verbal"
        },
        "cost": {
            "value": ""
        },
        "damage": {
            "applyMod": false,
            "value": ""
        },
        "damageType": {
            "value": ""
        },
        "description": {
            "chat": "",
            "unidentified": "",
            "value": "<p>You create a sticky web in the area that impedes creatures' movement each time they try to move through it. Squares filled with the web are difficult terrain. Each square can be cleared of the web by a single attack or effect that deals at least 5 slashing damage or 1 fire damage. A square has AC 5, and it automatically fails its saving throws.</p>\n<p>Each time a creature in the web begins to use a move action or enters the web during a move action, it must attempt an Athletics check or Reflex save against your spell DC to avoid taking a circumstance penalty to its Speeds or becoming @Compendium[pf2e.conditionitems.Immobilized]{Immobilized}. A creature that gets out of the web ceases to take a circumstance penalty to its Speed from the web.</p>\n<hr />\n<p><strong>Critical Success</strong> The creature is unaffected, and it doesn't need to attempt further Athletics checks or saving throws against the web this turn. If it used an Athletics check, it clears the web from every square it leaves after leaving the square.</p>\n<p><strong>Success</strong> The creature is unaffected during its action. If it used an Athletics check, it clears the web from every square it leaves after leaving the square.</p>\n<p><strong>Failure</strong> The creature takes a -10-foot circumstance penalty to its Speeds until the start of its next turn.</p>\n<p><strong>Critical Failure</strong> The creature is Immobilized until the start of its next turn, after which it takes a -10-foot circumstance penalty to its Speeds for 1 round. It can attempt to Escape to remove its Immobilized condition.</p>\n<hr />\n<p><strong>Heightened (4th)</strong> The spell's area increases to a 20-foot burst, and its range increases to 60 feet.</p>"
        },
        "duration": {
            "value": "1 minute"
        },
        "hasCounteractCheck": {
            "value": false
        },
        "level": {
            "value": 2
        },
        "location": {
            "value": ""
        },
        "materials": {
            "value": ""
        },
        "prepared": {
            "value": ""
        },
        "primarycheck": {
            "value": ""
        },
        "range": {
            "value": "30 feet"
        },
        "rules": [],
        "save": {
            "basic": "",
            "value": "reflex"
        },
        "scaling": {
            "formula": "",
            "mode": "none"
        },
        "school": {
            "value": "con"
        },
        "secondarycasters": {
            "value": ""
        },
        "secondarycheck": {
            "value": ""
        },
        "source": {
            "value": ""
        },
        "spellCategorie": {
            "value": "spell"
        },
        "spellCategory": {
            "value": ""
        },
        "spellType": {
            "value": "save"
        },
        "sustained": {
            "value": false
        },
        "target": {
            "value": ""
        },
        "time": {
            "value": "3"
        },
        "traditions": {
            "value": [
                "arcane",
                "primal"
            ]
        },
        "traits": {
            "custom": "",
            "rarity": {
                "value": "common"
            },
            "value": [
                "conjuration"
            ]
        }
    },
    "effects": [],
    "flags": {},
    "img": "systems/pf2e/icons/spells/web.jpg",
    "name": "Web",
    "permission": {
        "default": 0
    },
    "type": "spell"
}
