{
    "_id": "aewxsale5xWEPKLk",
    "data": {
        "ability": {
            "value": ""
        },
        "area": {
            "areaType": "burst",
            "value": 20
        },
        "areasize": {
            "value": "20-foot burst"
        },
        "components": {
            "value": "somatic, verbal"
        },
        "cost": {
            "value": ""
        },
        "damage": {
            "applyMod": false,
            "value": ""
        },
        "damageType": {
            "value": ""
        },
        "description": {
            "chat": "",
            "unidentified": "",
            "value": "<p>You designate an area in which creatures are compelled to speak only truth. Creatures within or entering the area have difficulty lying. Each potentially affected creature must attempt a Will save when the spell is cast or when the creature first enters the area. It uses the results of this initial save if it leaves and reenters the area. Affected creatures are aware of this enchantment; therefore, they can avoid answering questions to which they would normally respond with a lie, or they can be evasive as long as they remain within the boundaries of the truth.</p>\n<hr /><strong>Critical Success</strong> The target is unaffected.\n<p><strong>Success</strong> The target takes a -2 status penalty to Deception checks.</p>\n<p><strong>Failure</strong> The target can't speak any deliberate and intentional lies, and it takes a -2 status penalty to Deception checks.</p>\n<p><strong>Critical Failure</strong> The target can't speak any deliberate and intentional lies and takes a -4 status penalty to Deception checks.</p>"
        },
        "duration": {
            "value": "10 minutes"
        },
        "hasCounteractCheck": {
            "value": false
        },
        "level": {
            "value": 3
        },
        "location": {
            "value": ""
        },
        "materials": {
            "value": ""
        },
        "prepared": {
            "value": ""
        },
        "primarycheck": {
            "value": ""
        },
        "range": {
            "value": "30 feet"
        },
        "rules": [],
        "save": {
            "basic": "",
            "value": "will"
        },
        "scaling": {
            "formula": "",
            "mode": "none"
        },
        "school": {
            "value": "enc"
        },
        "secondarycasters": {
            "value": ""
        },
        "secondarycheck": {
            "value": ""
        },
        "source": {
            "value": ""
        },
        "spellCategorie": {
            "value": "spell"
        },
        "spellCategory": {
            "value": ""
        },
        "spellType": {
            "value": "save"
        },
        "sustained": {
            "value": false
        },
        "target": {
            "value": ""
        },
        "time": {
            "value": "2"
        },
        "traditions": {
            "value": [
                "divine",
                "occult"
            ]
        },
        "traits": {
            "custom": "",
            "rarity": {
                "value": "uncommon"
            },
            "value": [
                "uncommon",
                "mental",
                "enchantment"
            ]
        }
    },
    "effects": [],
    "flags": {},
    "img": "systems/pf2e/icons/spells/zone-of-truth.jpg",
    "name": "Zone of Truth",
    "permission": {
        "default": 0
    },
    "type": "spell"
}
