{
    "_id": "Nd9hdX8rdYyRozw8",
    "data": {
        "actionCategory": {
            "value": ""
        },
        "actionType": {
            "value": "passive"
        },
        "actions": {
            "value": ""
        },
        "description": {
            "chat": "",
            "unidentified": "",
            "value": "<p>In your long life, you've dabbled in many paths and many styles. Choose a class other than your own. You gain the multiclass dedication feat for that class, even though you don't meet its level prerequisite. You must still meet its other prerequisites to gain the feat.</p>"
        },
        "featType": {
            "value": "heritage"
        },
        "level": {
            "value": 1
        },
        "prerequisites": {
            "value": []
        },
        "rules": [],
        "source": {
            "value": ""
        },
        "traits": {
            "custom": "",
            "rarity": {
                "value": "common"
            },
            "selected": {
                "elf": "Elf"
            },
            "value": [
                "elf"
            ]
        }
    },
    "effects": [],
    "flags": {},
    "img": "systems/pf2e/icons/features/ancestry/ancient-elf.jpg",
    "name": "Ancient Elf",
    "permission": {
        "default": 0
    },
    "type": "feat"
}
