{
    "_id": "WVOP420jZ4jSTYI8",
    "data": {
        "actionCategory": {
            "value": ""
        },
        "actionType": {
            "value": "free"
        },
        "actions": {
            "value": ""
        },
        "description": {
            "chat": "",
            "unidentified": "",
            "value": "<p><strong>[Generic]</strong><strong>][Limited Use]</strong> □□□</p>\n<p><strong>Effect</strong>: You have traveled the pathways near the Forest of Spirits and not only managed to avoid losing your way, but even befriended some of the local kami. The kami's blessing follows you now and protects you from bad luck. Whenever you would critically fail a check to @Compendium[pf2e.actionspf2e.Hide]{Hide}, @Compendium[pf2e.actionspf2e.Sneak]{Sneak}, @Compendium[pf2e.actionspf2e.Sense Direction]{Sense Direction}, or @Compendium[pf2e.actionspf2e.Track]{Track} while in a forested area, you may check a box next to this boon as a free action to treat that check as a failure instead.</p>"
        },
        "featType": {
            "value": "pfsboon"
        },
        "level": {
            "value": "0"
        },
        "prerequisites": {
            "value": []
        },
        "rules": [],
        "source": {
            "value": ""
        },
        "traits": {
            "custom": "",
            "rarity": {
                "value": "common"
            },
            "selected": {},
            "value": []
        }
    },
    "effects": [],
    "flags": {},
    "img": "systems/pf2e/icons/default-icons/mystery-man.png",
    "name": "S1-06 - Traveler of the Spirit Road",
    "permission": {
        "default": 0
    },
    "type": "feat"
}
