{
    "_id": "CW73M2apBaQh6wLm",
    "data": {
        "actionCategory": {
            "value": ""
        },
        "actionType": {
            "value": "passive"
        },
        "actions": {
            "value": ""
        },
        "description": {
            "chat": "",
            "unidentified": "",
            "value": "<p><strong>[Slotless]</strong></p>\n<p><strong>Prerequisites</strong>: Tier 4 with the Grand Archive</p>\n<p><strong>Cost</strong>: 8 Fame</p>\n<p><strong>Effect</strong>: Through a combination of your own research and the access to rare resources through the Grand Archive, you have identified an exceptional research opportunity-one that you can't decipher on your own. You have recruited a promising new agent to help research and publish your findings, which gives your assistant an extraordinary edge in their training.</p>\n<p>When you purchase this boon, select one of your Pathfinder Society characters with 12 or fewer XP who is not a field commissioned agent. That character gains one additional point to assign to their school training, for a total of 4 points.</p>"
        },
        "featType": {
            "value": "pfsboon"
        },
        "level": {
            "value": "0"
        },
        "prerequisites": {
            "value": []
        },
        "rules": [],
        "source": {
            "value": ""
        },
        "traits": {
            "custom": "",
            "rarity": {
                "value": "common"
            },
            "selected": {},
            "value": []
        }
    },
    "effects": [],
    "flags": {},
    "img": "systems/pf2e/icons/default-icons/mystery-man.png",
    "name": "Unparalleled Scholarship",
    "permission": {
        "default": 0
    },
    "type": "feat"
}
