{
    "_id": "COsdMolZraFRTdP8",
    "data": {
        "description": {
            "value": "<p>Granted by using @Compendium[pf2e.feats-srd.Prevailing Position]{Prevailing Position}</p>\n<p>You leave the stance you were in, gaining a +4 circumstance bonus to the triggering saving throw or to your AC against the triggering attack.</p>"
        },
        "duration": {
            "expiry": "turn-start",
            "sustained": false,
            "unit": "rounds",
            "value": 0
        },
        "level": {
            "value": 16
        },
        "rules": [
            {
                "key": "PF2E.RuleElement.FlatModifier",
                "label": "Prevailing Position",
                "selector": "ac",
                "type": "circumstance",
                "value": 4
            },
            {
                "key": "PF2E.RuleElement.FlatModifier",
                "label": "Prevailing Position",
                "selector": "reflex",
                "type": "circumstance",
                "value": 4
            }
        ],
        "source": {
            "value": ""
        },
        "start": {
            "initiative": null,
            "value": 0
        },
        "target": null,
        "traits": {
            "custom": "",
            "rarity": {
                "value": "common"
            },
            "value": []
        }
    },
    "effects": [],
    "flags": {},
    "img": "systems/pf2e/icons/spells/elemental-tempest.jpg",
    "name": "Feat Effect: Prevailing Position",
    "permission": {
        "default": 0
    },
    "type": "effect"
}
