{
    "_id": "9HPxAKpP3WJmICBx",
    "data": {
        "description": {
            "value": "<p>Granted by @Compendium[pf2e.feats-srd.Point-Blank Shot]{Point-Blank Shot}.</p>\n<p>When using a ranged weapon that doesn't have the volley trait, you gain a +2 circumstance bonus to damage rolls on attacks against targets within the weapon's first range increment.</p>"
        },
        "duration": {
            "expiry": "turn-start",
            "sustained": false,
            "unit": "unlimited",
            "value": -1
        },
        "level": {
            "value": 1
        },
        "rules": [
            {
                "key": "PF2E.RuleElement.FlatModifier",
                "label": "Point-Blank Shot",
                "predicate": {
                    "all": [
                        "first-range-increment",
                        "ranged"
                    ],
                    "not": [
                        "volley-30"
                    ]
                },
                "selector": "damage",
                "type": "circumstance",
                "value": 2
            },
            {
                "key": "PF2E.RuleElement.TokenEffectIcon"
            },
            {
                "key": "PF2E.RuleElement.ToggleProperty",
                "label": "Target is within your first range increment",
                "property": "flags.pf2e.rollOptions.damage-roll.first-range-increment"
            }
        ],
        "source": {
            "value": ""
        },
        "start": {
            "initiative": null,
            "value": 0
        },
        "target": null,
        "traits": {
            "custom": "",
            "rarity": {
                "value": "common"
            },
            "value": []
        }
    },
    "effects": [],
    "flags": {},
    "img": "systems/pf2e/icons/equipment/weapons/daikyu.jpg",
    "name": "Stance: Point-Blank Shot",
    "permission": {
        "default": 0
    },
    "type": "effect"
}
